{
    "prefs": {
        "enabled": true,
        "url": "http://www.memeorandum.com/feed.xml",
        "ctSecsBetwRenews": 86400,
        "flNonListSubscribe": false
    },
    "data": {
        "feedhash": ""
    },
    "stats": {
        "ctReads": 1,
        "ctReadErrors": 0,
        "ctConsecutiveReadErrors": 0,
        "ctItems": 15,
        "ctEnclosures": 0,
        "ctFeedTextChanges": 0,
        "ct304s": 0,
        "ctItemsTooOld": 0,
        "ctReadsSkipped": 0,
        "ctInfoReads": 0,
        "ctInfoWrites": 1,
        "whenSubscribed": "2018-01-26T20:54:56.536Z",
        "whenLastRead": "2018-01-26T20:54:56.535Z",
        "whenLastNewItem": "2018-01-26T20:54:56.535Z",
        "mostRecentPubDate": "2018-01-26T20:50:02.000Z",
        "whenLastInfoWrite": "2018-01-26T20:55:00.143Z",
        "whenLastReadError": "1970-01-01T00:00:00.000Z",
        "whenLastInfoRead": "1970-01-01T00:00:00.000Z",
        "lastReadError": "",
        "itemSerialnum": 0,
        "ctSecsLastRead": 3.608
    },
    "feedInfo": {
        "title": "memeorandum",
        "link": "http://www.memeorandum.com/",
        "description": "Political Web, page A1"
    },
    "history": [
        {
            "title": "Mueller's Team Has Interviewed Facebook Staff as Part of Russia Probe (Issie Lapowsky/Wired)",
            "link": "http://www.memeorandum.com/180126/p97#a180126p97",
            "description": "Issie Lapowsky / Wired:\nMueller's Team Has Interviewed Facebook Staff as Part of Russia Probe&nbsp; &mdash;&nbsp; THE DEPARTMENT OF Justice's special counsel Robert Mueller and his office have interviewed at least one member of Facebook's team that was associated with President ...",
            "guid": "http://www.memeorandum.com/180126/p97#a180126p97",
            "when": "2018-01-26T20:54:56.535Z"
        },
        {
            "title": "A Father, A Husband, An Immigrant: Detained And Facing Deportation (NPR)",
            "link": "http://www.memeorandum.com/180126/p96#a180126p96",
            "description": "NPR:\nA Father, A Husband, An Immigrant: Detained And Facing Deportation&nbsp; &mdash;&nbsp; The day was going to be perfect.&nbsp; &mdash;&nbsp; Alex figured he would wake up at 6:30 a.m., help get his little brothers up and off to school and catch the bus by 7.&nbsp; After ...",
            "guid": "http://www.memeorandum.com/180126/p96#a180126p96",
            "when": "2018-01-26T20:54:56.535Z"
        },
        {
            "title": "These 6 GOP tweets just became very awkward (Judd Legum/ThinkProgress)",
            "link": "http://www.memeorandum.com/180126/p94#a180126p94",
            "description": "Judd Legum / ThinkProgress:\nThese 6 GOP tweets just became very awkward&nbsp; &mdash;&nbsp; Steve Wynn has raised and donated millions for Trump.&nbsp; &mdash;&nbsp; On Friday, the Wall Street Journal published a bombshell report about Steve Wynn, the Las Vegas casino mogul, ...",
            "guid": "http://www.memeorandum.com/180126/p94#a180126p94",
            "when": "2018-01-26T20:54:56.535Z"
        },
        {
            "title": "Jeb Bush Reams Marco Rubio on Immigration: 'God Forbid' You Do Anything Controversial (Gideon Resnick/The Daily Beast)",
            "link": "http://www.memeorandum.com/180126/p95#a180126p95",
            "description": "Gideon Resnick / The Daily Beast:\nJeb Bush Reams Marco Rubio on Immigration: &lsquo;God Forbid&rsquo; You Do Anything Controversial &hellip; The two former Republican presidential candidates best known for bucking the party on immigration found themselves at odds over the issue ...",
            "guid": "http://www.memeorandum.com/180126/p95#a180126p95",
            "when": "2018-01-26T20:54:56.535Z"
        },
        {
            "title": "The Price of Taking Down Larry Nassar (Rachael Denhollander/New York Times)",
            "link": "http://www.memeorandum.com/180126/p93#a180126p93",
            "description": "Rachael Denhollander / New York Times:\nThe Price of Taking Down Larry Nassar&nbsp; &mdash;&nbsp; On Jan. 16, women and girls from across the country began congregating in a courtroom in Lansing, Mich. Some of us were athletes; some of us were not.&nbsp; Some of us were white; ...",
            "guid": "http://www.memeorandum.com/180126/p93#a180126p93",
            "when": "2018-01-26T20:54:56.535Z"
        },
        {
            "title": "Steve Wynn, RNC finance chairman, faces allegations of sexual misconduct (Ed O'Keefe/Washington Post)",
            "link": "http://www.memeorandum.com/180126/p91#a180126p91",
            "description": "Ed O'Keefe / Washington Post:\nSteve Wynn, RNC finance chairman, faces allegations of sexual misconduct&nbsp; &mdash;&nbsp; Casino mogul Steve Wynn has no immediate plans to relinquish his role as finance chairman of the Republican National Committee in the wake of reports ...",
            "guid": "http://www.memeorandum.com/180126/p91#a180126p91",
            "when": "2018-01-26T20:54:56.535Z"
        },
        {
            "title": "Trump's latest interview shows he's not really the president (Matthew Yglesias/Vox)",
            "link": "http://www.memeorandum.com/180126/p92#a180126p92",
            "description": "Matthew Yglesias / Vox:\nTrump's latest interview shows he's not really the president&nbsp; &mdash;&nbsp; He's holding the office but not doing the job.&nbsp; &mdash;&nbsp; President Donald Trump's first non-Fox television interview in a long time, conducted with CNBC's Joe ...",
            "guid": "http://www.memeorandum.com/180126/p92#a180126p92",
            "when": "2018-01-26T20:54:56.535Z"
        },
        {
            "title": "Key Republican Dials Back Effort to Protect Robert Mueller From Donald Trump (Betsy Woodruff/The Daily Beast)",
            "link": "http://www.memeorandum.com/180126/p87#a180126p87",
            "description": "Betsy Woodruff / The Daily Beast:\nKey Republican Dials Back Effort to Protect Robert Mueller From Donald Trump &hellip; One of the first Senate Republicans to call for legislation protecting special counsel Robert Mueller has stopped actively pushing that effort, sources on ...",
            "guid": "http://www.memeorandum.com/180126/p87#a180126p87",
            "when": "2018-01-26T20:54:56.535Z"
        },
        {
            "title": "Boeing's trade petition against Canadian rival Bombardier rejected (Megan Cassella/Politico)",
            "link": "http://www.memeorandum.com/180126/p88#a180126p88",
            "description": "Megan Cassella / Politico:\nBoeing's trade petition against Canadian rival Bombardier rejected&nbsp; &mdash;&nbsp; The U.S. International Trade Commission sided with Montreal-based aircraft manufacturer Bombardier on Friday when it said it found no evidence that U.S.-based Boeing ...",
            "guid": "http://www.memeorandum.com/180126/p88#a180126p88",
            "when": "2018-01-26T20:54:56.535Z"
        },
        {
            "title": "Why Is Pay Lagging? Maybe Too Many Mergers in the Heartland (New York Times)",
            "link": "http://www.memeorandum.com/180126/p89#a180126p89",
            "description": "New York Times:\nWhy Is Pay Lagging?&nbsp; Maybe Too Many Mergers in the Heartland&nbsp; &mdash;&nbsp; Consolidation is often seen as a consumer problem.&nbsp; But it may also reduce competition for workers, especially outside big cities, holding down wages.&nbsp; &mdash;&nbsp; ...",
            "guid": "http://www.memeorandum.com/180126/p89#a180126p89",
            "when": "2018-01-26T20:54:56.535Z"
        },
        {
            "title": "Draft GOP resolution would flatter Joe Arpaio, then urge him to quit Senate race (Dan Nowicki/Arizona Republic)",
            "link": "http://www.memeorandum.com/180126/p90#a180126p90",
            "description": "Dan Nowicki / Arizona Republic:\nDraft GOP resolution would flatter Joe Arpaio, then urge him to quit Senate race&nbsp; &mdash;&nbsp; A draft Arizona Republican Party resolution would heap praise on former Maricopa County Sheriff Joe Arpaio's long career in law enforcement and ...",
            "guid": "http://www.memeorandum.com/180126/p90#a180126p90",
            "when": "2018-01-26T20:54:56.535Z"
        },
        {
            "title": "Trump plans to ask for $716 billion for national defense in 2019 - a major increase (Washington Post)",
            "link": "http://www.memeorandum.com/180126/p86#a180126p86",
            "description": "Washington Post:\nTrump plans to ask for $716 billion for national defense in 2019 &mdash; a major increase &hellip; President Trump is expected to ask for $716 billion in defense spending when he unveils his 2019 budget next month, a major increase that signals a shift away from ...",
            "guid": "http://www.memeorandum.com/180126/p86#a180126p86",
            "when": "2018-01-26T20:54:56.535Z"
        },
        {
            "title": "Exclusive: Frustrated State Department employees hire attorneys, charging 'political retribution' (Elise Labott/CNN)",
            "link": "http://www.memeorandum.com/180126/p84#a180126p84",
            "description": "Elise Labott / CNN:\nExclusive: Frustrated State Department employees hire attorneys, charging &lsquo;political retribution&rsquo;&nbsp; &mdash;&nbsp; Ex diplomat: US ability to &lsquo;avert disasters&rsquo; at risk&nbsp; &mdash;&nbsp; STORY HIGHLIGHTS&nbsp; &mdash; Several ...",
            "guid": "http://www.memeorandum.com/180126/p84#a180126p84",
            "when": "2018-01-26T20:54:56.535Z"
        },
        {
            "title": "National Gallery cancels Chuck Close, Thomas Roma shows; artists accused of sexual harassment (Peggy McGlone/Washington Post)",
            "link": "http://www.memeorandum.com/180126/p83#a180126p83",
            "description": "Peggy McGlone / Washington Post:\nNational Gallery cancels Chuck Close, Thomas Roma shows; artists accused of sexual harassment&nbsp; &mdash;&nbsp; The National Gallery of Art will not present solo exhibitions by painter Chuck Close and photographer Thomas Roma, both of whom have ...",
            "guid": "http://www.memeorandum.com/180126/p83#a180126p83",
            "when": "2018-01-26T20:54:56.535Z"
        },
        {
            "title": "Steve Wynn, Republican finance chair and Las Vegas mogul, accused of sexually abusing employees (German Lopez/Vox)",
            "link": "http://www.memeorandum.com/180126/p82#a180126p82",
            "description": "German Lopez / Vox:\nSteve Wynn, Republican finance chair and Las Vegas mogul, accused of sexually abusing employees&nbsp; &mdash;&nbsp; Dozens of Wynn's employees alleged what amounts to decades of sexual abuse in a new Wall Street Journal report.&nbsp; &mdash;&nbsp; Republican ...",
            "guid": "http://www.memeorandum.com/180126/p82#a180126p82",
            "when": "2018-01-26T20:54:56.535Z"
        }
    ],
    "lists": [],
    "calendar": {}
}