{
    "prefs": {
        "enabled": true,
        "url": "http://code4lib.org/node/feed",
        "ctSecsBetwRenews": 86400,
        "flNonListSubscribe": false
    },
    "data": {
        "feedhash": ""
    },
    "stats": {
        "ctReads": 1,
        "ctReadErrors": 0,
        "ctConsecutiveReadErrors": 0,
        "ctItems": 10,
        "ctEnclosures": 0,
        "ctFeedTextChanges": 0,
        "ct304s": 0,
        "ctItemsTooOld": 0,
        "ctReadsSkipped": 0,
        "ctInfoReads": 0,
        "ctInfoWrites": 1,
        "whenSubscribed": "2018-01-26T20:54:54.274Z",
        "whenLastRead": "2018-01-26T20:54:54.273Z",
        "whenLastNewItem": "2018-01-26T20:54:54.273Z",
        "mostRecentPubDate": "2018-01-22T21:02:16.000Z",
        "whenLastInfoWrite": "2018-01-26T20:54:55.180Z",
        "whenLastReadError": "1970-01-01T00:00:00.000Z",
        "whenLastInfoRead": "1970-01-01T00:00:00.000Z",
        "lastReadError": "",
        "itemSerialnum": 0,
        "ctSecsLastRead": 0.907
    },
    "feedInfo": {
        "title": "code4lib",
        "link": "https://code4lib.org/",
        "description": "code4lib is an IRC channel, a mailing list, and a conference for folks interested in the convergence of computers and library/information science. The channel grew out of the email list as a more informal and interactive way to discuss code, projects, ideas, and other random topics. Planet code4lib aggregates the journaling of some of the people in the room, and our most recent addition is a conference where we can all get some face time and share our latest projects."
    },
    "history": [
        {
            "title": "Seeking for a Local D.C. Host",
            "link": "https://code4lib.org/content/seeking-local-dc-host",
            "description": "Looking for any D.C. locals that could host a guest for the 2018 C4L. I'll be traveling from Philadelphia by car and am hoping to bike or metro to the Omni Shoreham Hotel. I have a potential registration that could be transferred to me if I can find boarding. Our travel budget ...",
            "guid": "595 at https://code4lib.org",
            "when": "2018-01-26T20:54:54.273Z"
        },
        {
            "title": "Issue 38 of the Code4Lib Journal",
            "link": "https://code4lib.org/content/issue-38-code4lib-journal",
            "description": "Issue 38 is now available!\nTable of Contents:\nEditorial: The Economics of Not Being an Organization\nby Carol Bean\nUsability Analysis of the Big Ten Academic Alliance Geoportal: Findings and Recommendations for Improvement of the User Experience\nby Mara Blake, Karen Majewicz, ...",
            "guid": "594 at https://code4lib.org",
            "when": "2018-01-26T20:54:54.273Z"
        },
        {
            "title": "Code4Lib 2018",
            "link": "https://code4lib.org/conference/2018",
            "description": "Topic:&nbsp;conferencesCode4Lib 2018 will be held from February 13-16, 2018, in Washington, D.C.\nMore information is available on the conference website at: http://2018.code4lib.org/",
            "guid": "593 at https://code4lib.org",
            "when": "2018-01-26T20:54:54.273Z"
        },
        {
            "title": "Issue 37 of the Code4Lib Journal",
            "link": "https://code4lib.org/content/issue-37-code4lib-journal",
            "description": "Issue 37 of the Code4Lib Journal is now available.\nTable of Contents:\nEditorial: Welcome New Editors, What We Know About Who We Are, and Submission Pro Tip!\nby Sara Amato\nA Practical Starter Guide on Developing Accessible Websites\nby Cynthia Ng and Michael Schofield\nRecount: ...",
            "guid": "592 at https://code4lib.org",
            "when": "2018-01-26T20:54:54.273Z"
        },
        {
            "title": "Code4Lib Journal Issue 38 Call for Papers",
            "link": "https://code4lib.org/content/code4lib-journal-issue-38-call-papers",
            "description": "Topic:&nbsp;journalThe Code4Lib Journal (C4LJ) exists to foster community and share information among those interested in the intersection of libraries, technology, and the future.\nWe are now accepting proposals for publication in our 38th issue. Don't miss out on this ...",
            "guid": "590 at https://code4lib.org",
            "when": "2018-01-26T20:54:54.273Z"
        },
        {
            "title": "Code4Lib Journal #34",
            "link": "https://code4lib.org/content/code4lib-journal-34",
            "description": "Topic:&nbsp;journalCode4Lib Journal #34 is now available.\nEditorial: Some Numbers, by Andrew Darby\nDigital Archaeology and/or Forensics: Working with Floppy Disks from the 1980s, by John Durno\nNeed Help with Your Code? Piloting a Programming and Software Development Consultation ...",
            "guid": "587 at https://code4lib.org",
            "when": "2018-01-26T20:54:54.273Z"
        },
        {
            "title": "C4L17: Call for Presentation/Panel proposals",
            "link": "https://code4lib.org/content/c4l17-call-presentationpanel-proposals",
            "description": "Topic:&nbsp;conferencesCode4Lib 2017 is a loosely-structured conference that provides people working at the intersection of libraries/archives/museums/cultural heritage and technology with a chance to share ideas, be inspired, and forge collaborations. For more information about ...",
            "guid": "586 at https://code4lib.org",
            "when": "2018-01-26T20:54:54.273Z"
        },
        {
            "title": "Code4Lib 2017",
            "link": "https://code4lib.org/conference/2017",
            "description": "The 2017 conference will be held from March 6 through March 9 in the at the Luskin Conference Center at UCLA. With a very large and modern conference center at our disposal, Code4Lib 2017 will be able to accommodate the growing number of attendees while also retaining that ...",
            "guid": "584 at https://code4lib.org",
            "when": "2018-01-26T20:54:54.273Z"
        },
        {
            "title": "Code4Lib Journal #33",
            "link": "https://code4lib.org/content/code4lib-journal-33",
            "description": "Topic:&nbsp;journalIssue #33 of the Code4Lib Journal is now available:\nEditorial Introduction – Summer Reading List, by Ron Peterson\nEmflix – Gone Baby Gone, by Netanel Ganin\nIntroduction to Text Mining with R for Information Professionals, by Monica Maceli\nData for Decision ...",
            "guid": "583 at https://code4lib.org",
            "when": "2018-01-26T20:54:54.273Z"
        },
        {
            "title": "Code4Lib Journal #32",
            "link": "https://code4lib.org/content/code4lib-journal-32",
            "description": "Topic:&nbsp;journal\nIssue #32 of the Code4Lib Journal is now available.\n\n Editorial  Introduction: People, by Meghan Finch\nAn Open-Source Strategy for Documenting Events: The Case Study of the 42nd Canadian Federal Election on Twitter by Nick Ruest and Ian Milligan\nHow to Party ...",
            "guid": "582 at https://code4lib.org",
            "when": "2018-01-26T20:54:54.273Z"
        }
    ],
    "lists": [],
    "calendar": {}
}