{
    "ctItemsAdded": 10,
    "whenLastItemAdded": "2018-01-26T20:54:55.180Z",
    "ctSaves": 1,
    "whenLastSave": "2018-01-26T20:54:58.270Z",
    "flDirty": false,
    "ctRiverBuilds": 0,
    "whenLastRiverBuild": "1970-01-01T00:00:00.000Z",
    "items": [
        {
            "title": "Seeking for a Local D.C. Host",
            "link": "https://code4lib.org/content/seeking-local-dc-host",
            "description": "Looking for any D.C. locals that could host a guest for the 2018 C4L. I'll be traveling from Philadelphia by car and am hoping to bike or metro to the Omni Shoreham Hotel. I have a potential registration that could be transferred to me if I can find boarding. Our travel budget ...",
            "permalink": "",
            "pubdate": "Mon Jan 22 2018 14:02:16 GMT-0700 (MST)",
            "comments": "https://code4lib.org/content/seeking-local-dc-host#comments",
            "feedUrl": "http://code4lib.org/node/feed",
            "when": "Fri Jan 26 2018 13:54:55 GMT-0700 (MST)",
            "aggregator": "River5 v0.6.2",
            "id": 21,
            "fullDescription": "<div class=\"field field-name-body field-type-text-with-summary field-label-hidden\"><div class=\"field-items\"><div class=\"field-item even\" property=\"content:encoded\"><p>Looking for any D.C. locals that could host a guest for the 2018 C4L. I'll be traveling from Philadelphia by car and am hoping to bike or metro to the Omni Shoreham Hotel. I have a potential registration that could be transferred to me if I can find boarding. Our travel budget is tight so I need to reduce as much cost as possible. Thanks all!</p>\n</div></div></div>"
        },
        {
            "title": "Issue 38 of the Code4Lib Journal",
            "link": "https://code4lib.org/content/issue-38-code4lib-journal",
            "description": "Issue 38 is now available!\nTable of Contents:\nEditorial: The Economics of Not Being an Organization\nby Carol Bean\nUsability Analysis of the Big Ten Academic Alliance Geoportal: Findings and Recommendations for Improvement of the User Experience\nby Mara Blake, Karen Majewicz, ...",
            "permalink": "",
            "pubdate": "Wed Oct 18 2017 08:23:46 GMT-0700 (MST)",
            "comments": "https://code4lib.org/content/issue-38-code4lib-journal#comments",
            "feedUrl": "http://code4lib.org/node/feed",
            "when": "Fri Jan 26 2018 13:54:55 GMT-0700 (MST)",
            "aggregator": "River5 v0.6.2",
            "id": 22,
            "fullDescription": "<div class=\"field field-name-body field-type-text-with-summary field-label-hidden\"><div class=\"field-items\"><div class=\"field-item even\" property=\"content:encoded\"><p><a href=\"http://journal.code4lib.org/\">Issue 38</a> is now available!</p>\n<p><strong>Table of Contents:</strong></p>\n<p><strong><a href=\"http://journal.code4lib.org/articles/13074\">Editorial: The Economics of Not Being an Organization</a></strong><br />\nby Carol Bean</p>\n<p><strong><a href=\"http://journal.code4lib.org/articles/12932\">Usability Analysis of the Big Ten Academic Alliance Geoportal: Findings and Recommendations for Improvement of the User Experience</a></strong><br />\nby Mara Blake, Karen Majewicz, Amanda Tickner, Jason Lam</p>\n<p><strong><a href=\"http://journal.code4lib.org/articles/12792\">Using the ‘rentrez’ R Package to Identify Repository Records for NCBI LinkOut</a></strong><br />\nby Yoo Young Lee, Erin D. Foster, David E. Polley, and Jere Odell</p>\n<p><strong><a href=\"http://journal.code4lib.org/articles/12902\">The Drawings of the Florentine Painters: From Print Catalog to Linked Open Data</a></strong><br />\nby Lukas Klic, Matt Miller, Jonathan K. Nelson, Cristina Pattuelli, and Alexandra Provo</p>\n<p><strong><a href=\"http://journal.code4lib.org/articles/13007\">Web-Scraping for Non-Programmers: Introducing OXPath for Digital Library Metadata Harvesting</a></strong><br />\nby Mandy Neumann, Jan Steinberg, and Philipp Schaer</p>\n<p><strong><a href=\"http://journal.code4lib.org/articles/12870\">DIY DOI: Leveraging the DOI Infrastructure to Simplify Digital Preservation and Repository Management</a></strong><br />\nby Kyle Bannerjee and David Forero</p>\n<p><strong><a href=\"http://journal.code4lib.org/articles/12821\">Direct Database Access to OCLC Connexion’s Local Save File</a></strong><br />\nby Rebecca B. French</p>\n<p><strong><a href=\"http://journal.code4lib.org/articles/12783\">Between the Sheets: a Library-wide Inventory with Google</a></strong><br />\nby Craig Boman and Ray Voelker</p>\n<p><strong><a href=\"http://journal.code4lib.org/articles/12779\">Tools and Workflows for Collaborating on Static Website Projects</a></strong><br />\nby Kaitlin Newson</p>\n<p><strong><a href=\"http://journal.code4lib.org/articles/12828\">Leveraging Python to improve ebook metadata selection, ingest, and management</a></strong><br />\nby Kelly Thompson and Stacie Traill</p>\n<p><strong><a href=\"http://journal.code4lib.org/articles/12947\">Testing Three Types of Raspberry Pi People Counters</a></strong><br />\nby Johnathan Cintron, Devlyn Courtier, and John DeLooper</p>\n</div></div></div>"
        },
        {
            "title": "Code4Lib 2018",
            "link": "https://code4lib.org/conference/2018",
            "description": "Topic:&nbsp;conferencesCode4Lib 2018 will be held from February 13-16, 2018, in Washington, D.C.\nMore information is available on the conference website at: http://2018.code4lib.org/",
            "permalink": "",
            "pubdate": "Tue Aug 08 2017 15:07:24 GMT-0700 (MST)",
            "comments": "https://code4lib.org/conference/2018#comments",
            "feedUrl": "http://code4lib.org/node/feed",
            "when": "Fri Jan 26 2018 13:54:55 GMT-0700 (MST)",
            "aggregator": "River5 v0.6.2",
            "id": 23,
            "fullDescription": "<div class=\"field field-name-taxonomy-vocabulary-1 field-type-taxonomy-term-reference field-label-above\"><div class=\"field-label\">Topic:&nbsp;</div><div class=\"field-items\"><div class=\"field-item even\"><a href=\"/taxonomy/term/9\" typeof=\"skos:Concept\" property=\"rdfs:label skos:prefLabel\" datatype=\"\">conferences</a></div></div></div><div class=\"field field-name-body field-type-text-with-summary field-label-hidden\"><div class=\"field-items\"><div class=\"field-item even\" property=\"content:encoded\"><p>Code4Lib 2018 will be held from February 13-16, 2018, in Washington, D.C.</p>\n<p>More information is available on the conference website at: <a href=\"http://2018.code4lib.org/\">http://2018.code4lib.org/</a></p>\n</div></div></div>"
        },
        {
            "title": "Issue 37 of the Code4Lib Journal",
            "link": "https://code4lib.org/content/issue-37-code4lib-journal",
            "description": "Issue 37 of the Code4Lib Journal is now available.\nTable of Contents:\nEditorial: Welcome New Editors, What We Know About Who We Are, and Submission Pro Tip!\nby Sara Amato\nA Practical Starter Guide on Developing Accessible Websites\nby Cynthia Ng and Michael Schofield\nRecount: ...",
            "permalink": "",
            "pubdate": "Tue Jul 18 2017 18:16:16 GMT-0700 (MST)",
            "comments": "https://code4lib.org/content/issue-37-code4lib-journal#comments",
            "feedUrl": "http://code4lib.org/node/feed",
            "when": "Fri Jan 26 2018 13:54:55 GMT-0700 (MST)",
            "aggregator": "River5 v0.6.2",
            "id": 24,
            "fullDescription": "<div class=\"field field-name-body field-type-text-with-summary field-label-hidden\"><div class=\"field-items\"><div class=\"field-item even\" property=\"content:encoded\"><p><a href=\"http://journal.code4lib.org/issues/issues/issue37\">Issue 37 of the Code4Lib Journal</a> is now available.</p>\n<p><strong>Table of Contents:</strong></p>\n<p><a href=\"http://journal.code4lib.org/articles/12651\">Editorial: Welcome New Editors, What We Know About Who We Are, and Submission Pro Tip!</a><br />\nby Sara Amato</p>\n<p><a href=\"http://journal.code4lib.org/articles/12697\">A Practical Starter Guide on Developing Accessible Websites</a><br />\nby Cynthia Ng and Michael Schofield</p>\n<p><a href=\"http://journal.code4lib.org/articles/12676\">Recount: Revisiting the 42nd Canadian Federal Election to Evaluate the Efficacy of Retroactive Tweet Collection</a><br />\nby Anthony T. Pinter and Ben Goldman</p>\n<p><a href=\"http://journal.code4lib.org/articles/12529\">Extending Omeka for a Large-Scale Digital Project</a><br />\nby Haley Antell, Joe Corall, Virginia Dressler, Cara Gilgenbach</p>\n<p><a href=\"http://journal.code4lib.org/articles/12660\">The FachRef-Assistant: Personalised, subject specific, and transparent stock management</a><br />\nby Eike T. Spielberg, Frank Lützenkirchen</p>\n<p><a href=\"http://journal.code4lib.org/articles/12668\">The Semantics of Metadata: Avalon Media System and the Move to RDF</a><br />\nby Juliet L. Hardesty and Jennifer B. Young</p>\n<p><a href=\"http://journal.code4lib.org/articles/12627\">OpeNumisma: A Software Platform Managing Numismatic Collections with A Particular Focus On Reflectance Transformation Imaging</a><br />\nby Avgoustinos Avgousti, Andriana Nikolaidou, Ropertos Georgiou</p>\n<p><a href=\"http://journal.code4lib.org/articles/12549\">DuEPublicA: Automated bibliometric reports based on the University Bibliography and external citation data</a><br />\nby Eike T. Spielberg</p>\n<p><a href=\"http://journal.code4lib.org/articles/12548\">New Metadata Recipes for Old Cookbooks: Creating and Analyzing a Digital Collection Using the HathiTrust Research Center Portal</a><br />\nby Gioia Stevens</p>\n<p><a href=\"http://journal.code4lib.org/articles/12542\">Countering Stryker’s Punch: Algorithmically Filling the Black Hole</a><br />\nby Michael J. Bennett</p>\n</div></div></div>"
        },
        {
            "title": "Code4Lib Journal Issue 38 Call for Papers",
            "link": "https://code4lib.org/content/code4lib-journal-issue-38-call-papers",
            "description": "Topic:&nbsp;journalThe Code4Lib Journal (C4LJ) exists to foster community and share information among those interested in the intersection of libraries, technology, and the future.\nWe are now accepting proposals for publication in our 38th issue. Don't miss out on this ...",
            "permalink": "",
            "pubdate": "Mon Jun 12 2017 08:17:09 GMT-0700 (MST)",
            "comments": "https://code4lib.org/content/code4lib-journal-issue-38-call-papers#comments",
            "feedUrl": "http://code4lib.org/node/feed",
            "when": "Fri Jan 26 2018 13:54:55 GMT-0700 (MST)",
            "aggregator": "River5 v0.6.2",
            "id": 25,
            "fullDescription": "<div class=\"field field-name-taxonomy-vocabulary-1 field-type-taxonomy-term-reference field-label-above\"><div class=\"field-label\">Topic:&nbsp;</div><div class=\"field-items\"><div class=\"field-item even\"><a href=\"/taxonomy/term/16\" typeof=\"skos:Concept\" property=\"rdfs:label skos:prefLabel\" datatype=\"\">journal</a></div></div></div><div class=\"field field-name-body field-type-text-with-summary field-label-hidden\"><div class=\"field-items\"><div class=\"field-item even\" property=\"content:encoded\"><p>The Code4Lib Journal (C4LJ) exists to foster community and share information among those interested in the intersection of libraries, technology, and the future.</p>\n<p>We are now accepting proposals for publication in our 38th issue. Don't miss out on this opportunity to share your ideas and experiences. To be included in the 38th issue, which is scheduled for publication in mid October, 2017, please submit articles, abstracts, or proposals at http://journal.code4lib.org/submit-proposal or to journal@code4lib.org by Friday, Friday, July 14, 2017.  When submitting, please include the title or subject of the proposal in the subject line of the email message.</p>\n<p>C4LJ encourages creativity and flexibility, and the editors welcome submissions across a broad variety of topics that support the mission of the journal.  Possible topics include, but are not limited to:</p>\n<ul><li>Practical applications of library technology (both actual and hypothetical)</li>\n<li>Technology projects (failed, successful, or proposed), including how they were done and challenges faced</li>\n<li>Case studies</li>\n<li>Best practices</li>\n<li>Reviews</li>\n<li>Comparisons of third party software or libraries</li>\n<li>Analyses of library metadata for use with technology</li>\n<li>Project management and communication within the library environment</li>\n<li>Assessment and user studies</li>\n</ul><p>C4LJ strives to promote professional communication by minimizing the barriers to publication.  While articles should be of a high quality, they need not follow any formal structure.  Writers should aim for the middle ground between blog posts and articles in traditional refereed journals.  Where appropriate, we encourage authors to submit code samples, algorithms, and pseudo-code.  For more information, visit C4LJ's Article Guidelines or browse articles from the first 36 issues published on our website: http://journal.code4lib.org.</p>\n<p>Remember, for consideration for the 38th issue, please send proposals, abstracts, or draft articles to journal@code4lib.org no later than Friday, July 14, 2017.</p>\n<p>Send in a submission.  Your peers would like to hear what you are doing.</p>\n<p>Code4Lib Journal Editorial Committee</p>\n</div></div></div>"
        },
        {
            "title": "Code4Lib Journal #34",
            "link": "https://code4lib.org/content/code4lib-journal-34",
            "description": "Topic:&nbsp;journalCode4Lib Journal #34 is now available.\nEditorial: Some Numbers, by Andrew Darby\nDigital Archaeology and/or Forensics: Working with Floppy Disks from the 1980s, by John Durno\nNeed Help with Your Code? Piloting a Programming and Software Development Consultation ...",
            "permalink": "",
            "pubdate": "Fri Oct 28 2016 18:08:17 GMT-0700 (MST)",
            "comments": "https://code4lib.org/content/code4lib-journal-34#comments",
            "feedUrl": "http://code4lib.org/node/feed",
            "when": "Fri Jan 26 2018 13:54:55 GMT-0700 (MST)",
            "aggregator": "River5 v0.6.2",
            "id": 26,
            "fullDescription": "<div class=\"field field-name-taxonomy-vocabulary-1 field-type-taxonomy-term-reference field-label-above\"><div class=\"field-label\">Topic:&nbsp;</div><div class=\"field-items\"><div class=\"field-item even\"><a href=\"/taxonomy/term/16\" typeof=\"skos:Concept\" property=\"rdfs:label skos:prefLabel\" datatype=\"\">journal</a></div></div></div><div class=\"field field-name-body field-type-text-with-summary field-label-hidden\"><div class=\"field-items\"><div class=\"field-item even\" property=\"content:encoded\"><p><a href=\"http://journal.code4lib.org/issues/issues/issue34\">Code4Lib Journal #34</a> is now available.</p>\n<ul><li><a href=\"http://journal.code4lib.org/articles/12049\">Editorial: Some Numbers</a>, by Andrew Darby</li>\n<li><a href=\"http://journal.code4lib.org/articles/11986\">Digital Archaeology and/or Forensics: Working with Floppy Disks from the 1980s</a>, by John Durno</li>\n<li><a href=\"http://journal.code4lib.org/articles/11963\">Need Help with Your Code? Piloting a Programming and Software Development Consultation Service</a>, by Laura Wrubel, Daniel Kerchner and Justin Littman</li>\n<li><a href=\"http://journal.code4lib.org/articles/11997\">Partnering for Discoverability: Knitting Archival Finding Aids to Digitized Material Using a Low Tech Digital Content Linking Process</a>, by Liz Woolcott, Andrea Payant and Sara Skindelien</li>\n<li><a href=\"http://journal.code4lib.org/articles/11980\">Overly Honest Data Repository Development</a>, by Colleen Fallaw, Elise Dunham, Elizabeth Wickes, Dena Strong, Ayla Stein, Qian Zhang, Kyle Rimkus, Bill Ingram and Heidi J. Imker</li>\n<li><a href=\"http://journal.code4lib.org/articles/11940\">OSS4EVA: Using Open-Source Tools to Fulfill Digital Preservation Requirements</a>, by Janet Carleton, Heidi Dowding, Marty Gengenbach, Blake Graham, Sam Meister, Jessica Moran, Shira Peltzman, Julie Seifert and Dorothy Waugh</li>\n<li><a href=\"http://journal.code4lib.org/articles/11909\">Node-Based Configuration Management Architecture for Private LOCKSS Networks</a> by Tobin M. Cataldo</li>\n<li><a href=\"http://journal.code4lib.org/articles/11954\">From Users to Developers: NCSU’s Involvement with an Open Source ERM</a>, by Xiaoyan Song</li>\n<li><a href=\"http://journal.code4lib.org/articles/11948\">Consortial-Based Customizations for New Primo UI</a>, by Dan Moore and Nathan Mealey</li>\n</ul></div></div></div>"
        },
        {
            "title": "C4L17: Call for Presentation/Panel proposals",
            "link": "https://code4lib.org/content/c4l17-call-presentationpanel-proposals",
            "description": "Topic:&nbsp;conferencesCode4Lib 2017 is a loosely-structured conference that provides people working at the intersection of libraries/archives/museums/cultural heritage and technology with a chance to share ideas, be inspired, and forge collaborations. For more information about ...",
            "permalink": "",
            "pubdate": "Fri Oct 14 2016 09:05:05 GMT-0700 (MST)",
            "comments": "https://code4lib.org/content/c4l17-call-presentationpanel-proposals#comments",
            "feedUrl": "http://code4lib.org/node/feed",
            "when": "Fri Jan 26 2018 13:54:55 GMT-0700 (MST)",
            "aggregator": "River5 v0.6.2",
            "id": 27,
            "fullDescription": "<div class=\"field field-name-taxonomy-vocabulary-1 field-type-taxonomy-term-reference field-label-above\"><div class=\"field-label\">Topic:&nbsp;</div><div class=\"field-items\"><div class=\"field-item even\"><a href=\"/taxonomy/term/9\" typeof=\"skos:Concept\" property=\"rdfs:label skos:prefLabel\" datatype=\"\">conferences</a></div></div></div><div class=\"field field-name-body field-type-text-with-summary field-label-hidden\"><div class=\"field-items\"><div class=\"field-item even\" property=\"content:encoded\"><p>Code4Lib 2017 is a loosely-structured conference that provides people working at the intersection of libraries/archives/museums/cultural heritage and technology with a chance to share ideas, be inspired, and forge collaborations. For more information about the Code4Lib community, please visit <a href=\"http://code4lib.org/about/\">http://code4lib.org/about/</a>.</p>\n<p>The conference will be held at the <a href=\"http://luskinconferencecenter.ucla.edu/\">Luskin Conference Center at UCLA</a>, from March 6, 2017 - March 9, 2017.  More information about Code4lib 2017 will be coming soon.</p>\n<p>We encourage all members of the Code4Lib community to submit a proposal for a prepared talk. Prepared talks should focus on one or more of the following areas:</p>\n<p>-Projects you've worked on which incorporate innovative implementation of existing technologies and/or development of new software<br />\n- Tools and technologies – How to get the most out of existing tools, standards, and protocols (and ideas on how to make them better)<br />\n- Technical issues – Big issues in library technology that are worthy of community attention or development<br />\n- Relevant non-technical issues – Concerns of interest to the Code4Lib community which are not strictly technical in nature, e.g. collaboration, diversity, organizational challenges, etc.</p>\n<p>This year, in order to provide increased opportunities for a diversity of speakers and topics, we'll be soliciting 10, 15, and 20 minute talks. You'll be asked to indicate which talk lengths you would be willing to accommodate for your proposal. We are also considering holding a poster session at this year's conference. If you would be interested in presenting your topic as a poster, please indicate so on the form.<br /><a href=\"https://goo.gl/forms/GbM0jmSdXFkRdHAr2\">https://goo.gl/forms/GbM0jmSdXFkRdHAr2</a></p>\n<p>In addition to \"traditional\" presentations and posters, we plan to include a panel session this year. If you have a topic you'd like to suggest for a panel, and are willing to work with the Program Committee to organize / recruit for the session, please use the following form.<br /><a href=\"https://goo.gl/forms/q2KbVcO4ntkh6bPp1\">https://goo.gl/forms/q2KbVcO4ntkh6bPp1</a></p>\n<p>As in past years, the Code4Lib community will vote on proposals that they would like to see included in the program. The top 10 proposals are guaranteed a slot of their preferred length at the conference. The Program Committee will curate the remainder of the program in an effort to ensure diversity in program content and presenters. Community votes will, of course, still weigh heavily in these decisions.</p>\n<p>Presenters whose proposals are selected for inclusion in the program will have conference registration slots held for them (up to 2 speakers per talk). In addition, panel participants will have registration slots held. The standard conference registration fee will apply.</p>\n<p>Proposals can be submitted through November 7, 2016 at midnight PST (GMT−8). Voting will start on November 16, 2016 and continue through December 7, 2016. The URL to submit votes will be announced on the Code4Lib website and mailing list and will require an active code4lib.org account to participate. The final list of presentations will be announced in December.</p>\n<p>Thank you,<br />\nThe Code4Lib 2017 Program Committee</p>\n</div></div></div>"
        },
        {
            "title": "Code4Lib 2017",
            "link": "https://code4lib.org/conference/2017",
            "description": "The 2017 conference will be held from March 6 through March 9 in the at the Luskin Conference Center at UCLA. With a very large and modern conference center at our disposal, Code4Lib 2017 will be able to accommodate the growing number of attendees while also retaining that ...",
            "permalink": "",
            "pubdate": "Thu Oct 13 2016 12:09:15 GMT-0700 (MST)",
            "comments": "https://code4lib.org/conference/2017#comments",
            "feedUrl": "http://code4lib.org/node/feed",
            "when": "Fri Jan 26 2018 13:54:55 GMT-0700 (MST)",
            "aggregator": "River5 v0.6.2",
            "id": 28,
            "fullDescription": "<div class=\"field field-name-body field-type-text-with-summary field-label-hidden\"><div class=\"field-items\"><div class=\"field-item even\" property=\"content:encoded\"><p><a href=\"http://2017.code4lib.org\"><img width=\"600\" height=\"185\" src=\"/files/20161219203056%21Lrl_c4l_palms_1.png\" title=\"Code4Lib 2017 conference site\" /></a></p>\n<p>The 2017 conference will be held from March 6 through March 9 in the at the <a href=\"http://luskinconferencecenter.ucla.edu/\">Luskin Conference Center</a> at UCLA. With a very large and modern conference center at our disposal, Code4Lib 2017 will be able to accommodate the growing number of attendees while also retaining that small, tight-knit Code4Lib community feeling of previous years. We hope you can come join us!</p>\n<p>More information about this year's conference is available on the  <a href=\"http://2017.code4lib.org\">2017 conference</a> website.</p>\n<p>It’s shaping up to be a great conference this year, and there will be lots more opportunities to volunteer. Our team is looking forward to seeing you on March 6!</p>\n<p>~ The Code4Lib 2017 Los Angeles Committee </p>\n</div></div></div>"
        },
        {
            "title": "Code4Lib Journal #33",
            "link": "https://code4lib.org/content/code4lib-journal-33",
            "description": "Topic:&nbsp;journalIssue #33 of the Code4Lib Journal is now available:\nEditorial Introduction – Summer Reading List, by Ron Peterson\nEmflix – Gone Baby Gone, by Netanel Ganin\nIntroduction to Text Mining with R for Information Professionals, by Monica Maceli\nData for Decision ...",
            "permalink": "",
            "pubdate": "Tue Jul 19 2016 08:32:07 GMT-0700 (MST)",
            "comments": "https://code4lib.org/content/code4lib-journal-33#comments",
            "feedUrl": "http://code4lib.org/node/feed",
            "when": "Fri Jan 26 2018 13:54:55 GMT-0700 (MST)",
            "aggregator": "River5 v0.6.2",
            "id": 29,
            "fullDescription": "<div class=\"field field-name-taxonomy-vocabulary-1 field-type-taxonomy-term-reference field-label-above\"><div class=\"field-label\">Topic:&nbsp;</div><div class=\"field-items\"><div class=\"field-item even\"><a href=\"/taxonomy/term/16\" typeof=\"skos:Concept\" property=\"rdfs:label skos:prefLabel\" datatype=\"\">journal</a></div></div></div><div class=\"field field-name-body field-type-text-with-summary field-label-hidden\"><div class=\"field-items\"><div class=\"field-item even\" property=\"content:encoded\"><p>Issue #33 of the <em>Code4Lib Journal</em> is now available:</p>\n<ul><li><a href=\"http://journal.code4lib.org/articles/11859\">Editorial Introduction – Summer Reading List</a>, by Ron Peterson</li>\n<li><a href=\"http://journal.code4lib.org/articles/11762\">Emflix – Gone Baby Gone</a>, by Netanel Ganin</li>\n<li><a href=\"http://journal.code4lib.org/articles/11626\">Introduction to Text Mining with R for Information Professionals</a>, by Monica Maceli</li>\n<li><a href=\"http://journal.code4lib.org/articles/11740\">Data for Decision Making: Tracking Your Library’s Needs With TrackRef</a>, by Michael Carlozzi</li>\n<li><a href=\"http://journal.code4lib.org/articles/11781\">Are games a viable solution to crowdsourcing improvements to faulty OCR? – The Purposeful Gaming and BHL experience</a>, by Max J. Seidman, Mary Flanagan, Trish Rose-Sandler and Mike Lichtenberg</li>\n<li><a href=\"http://journal.code4lib.org/articles/11676\">From Digital Commons to OCLC: A Tailored Approach for Harvesting and Transforming ETD Metadata into High-Quality Records</a> by Marielle Veve</li>\n<li><a href=\"http://journal.code4lib.org/articles/11765\">Checking the identity of entities by machine algorithms: the next step to the Hungarian National Namespace</a>, by Zsolt Bánki, Tibor Mészáros, Márton Németh and András Simon</li>\n<li><a href=\"http://journal.code4lib.org/articles/11752\">Metadata Analytics, Visualization, and Optimization: Experiments in statistical analysis of the Digital Public Library of America (DPLA)</a>, by Corey A. Harper</li>\n</ul></div></div></div>"
        },
        {
            "title": "Code4Lib Journal #32",
            "link": "https://code4lib.org/content/code4lib-journal-32",
            "description": "Topic:&nbsp;journal\nIssue #32 of the Code4Lib Journal is now available.\n\n Editorial  Introduction: People, by Meghan Finch\nAn Open-Source Strategy for Documenting Events: The Case Study of the 42nd Canadian Federal Election on Twitter by Nick Ruest and Ian Milligan\nHow to Party ...",
            "permalink": "",
            "pubdate": "Tue Apr 26 2016 07:48:13 GMT-0700 (MST)",
            "comments": "https://code4lib.org/content/code4lib-journal-32#comments",
            "feedUrl": "http://code4lib.org/node/feed",
            "when": "Fri Jan 26 2018 13:54:55 GMT-0700 (MST)",
            "aggregator": "River5 v0.6.2",
            "id": 30,
            "fullDescription": "<div class=\"field field-name-taxonomy-vocabulary-1 field-type-taxonomy-term-reference field-label-above\"><div class=\"field-label\">Topic:&nbsp;</div><div class=\"field-items\"><div class=\"field-item even\"><a href=\"/taxonomy/term/16\" typeof=\"skos:Concept\" property=\"rdfs:label skos:prefLabel\" datatype=\"\">journal</a></div></div></div><div class=\"field field-name-body field-type-text-with-summary field-label-hidden\"><div class=\"field-items\"><div class=\"field-item even\" property=\"content:encoded\"><p>\nIssue #32 of the <cite>Code4Lib Journal</cite> is now available.\n</p>\n<ul><li> <a href=\"http://journal.code4lib.org/articles/11533\">Editorial  Introduction: People</a>, by Meghan Finch</li>\n<li><a href=\"http://journal.code4lib.org/?p=11358\">An Open-Source Strategy for Documenting Events: The Case Study of the 42nd Canadian Federal Election on Twitter</a> by Nick Ruest and Ian Milligan</li>\n<li><a href=\"http://journal.code4lib.org/?p=11386\">How to Party Like it’s 1999: Emulation for Everyone</a> – by Dianne Dietrich, Julia Kim, Morgan McKeehan, and Alison Rhonemus</li>\n<li><a href=\"http://journal.code4lib.org/?p=11398\">How We Went from Worst Practices to Good Practices, and Became Happier in the Process</a> by Amanda French, Francis Kayiwa, Anne Lawrence, Keith Gilbertson and Melissa Lohrey</li>\n<li><a href=\"http://journal.code4lib.org/?p=11421\">Shining a Light on Scientific Data: Building a Data Catalog to Foster Data Sharing and Reuse</a> by Ian Lamb and Catherine Larson</li>\n<li><a href=\"http://journal.code4lib.org/?p=11338\">Creation of a Library Tour Application for Mobile Equipment using iBeacon Technology</a> by Jonathan Bradley, Neal Henshaw, Liz McVoy, Amanda French, Keith Gilbertson, Lisa Becksford, and Elisabeth Givens.</li>\n<li><a href=\"http://journal.code4lib.org/?p=11413\">Measuring Library Vendor Cyber Security: Seven Easy Questions Every Librarian Can Ask</a> by Alex Caro and Chris Markman\n</li><li><a href=\"http://journal.code4lib.org/?p=11355\">Building Bridges with Logs: Collaborative Conversations about Discovery across Library Departments</a> by Jimmy Ghaphery, Emily Owens, Donna Coghill, Laura Gariepy, Megan Hodge, Thomas McNulty, and Erin White</li>\n</ul></div></div></div>"
        }
    ]
}