{
    "ctItemsAdded": 25,
    "whenLastItemAdded": "2018-01-26T20:54:56.126Z",
    "ctSaves": 1,
    "whenLastSave": "2018-01-26T20:54:58.267Z",
    "flDirty": false,
    "ctRiverBuilds": 0,
    "whenLastRiverBuild": "1970-01-01T00:00:00.000Z",
    "items": [
        {
            "title": "",
            "link": "https://www.thedailybeast.com/key-republican-dials-back-effort-to-protect-robert-mueller-from-donald-trump",
            "description": "One of the first Senate Republicans to call for legislation protecting special counsel Robert Mueller has stopped actively pushing that effort, sources on Capitol Hill say.",
            "permalink": "https://www.thedailybeast.com/key-republican-dials-back-effort-to-protect-robert-mueller-from-donald-trump",
            "outline": {
                "text": "One of the first Senate Republicans to call for legislation protecting special counsel Robert Mueller has stopped actively pushing that effort, sources on Capitol Hill say.",
                "created": "Fri, 26 Jan 2018 20:16:55 GMT",
                "type": "tweet",
                "tweetid": "956984318995386375",
                "tweetusername": "davewiner"
            },
            "pubdate": "2018-01-26T20:16:55.000Z",
            "comments": "",
            "feedUrl": "http://radio3.io/users/davewiner/rss.xml",
            "when": "2018-01-26T20:54:56.120Z",
            "aggregator": "River5 v0.6.2",
            "id": 126
        },
        {
            "title": "",
            "link": "https://posts.google.com/bulletin/share",
            "description": "Bulletin is a free, lightweight app for telling a story by capturing photos, videoclips and text right from your phone, published straight to the web (without having to create a blog or build a website).",
            "permalink": "https://posts.google.com/bulletin/share",
            "outline": {
                "text": "Bulletin is a free, lightweight app for telling a story by capturing photos, videoclips and text right from your phone, published straight to the web (without having to create a blog or build a website).",
                "created": "Fri, 26 Jan 2018 20:12:53 GMT",
                "type": "tweet",
                "tweetid": "956983311271854080",
                "tweetusername": "davewiner"
            },
            "pubdate": "2018-01-26T20:12:53.000Z",
            "comments": "",
            "feedUrl": "http://radio3.io/users/davewiner/rss.xml",
            "when": "2018-01-26T20:54:56.120Z",
            "aggregator": "River5 v0.6.2",
            "id": 127
        },
        {
            "title": "",
            "link": "https://nypost.com/2018/01/26/joakim-noah-leaves-knicks-in-dark-over-return-date/amp/?__twitter_impression=true",
            "description": "Knicks fear Noah not back till next week, double down on trade talks.",
            "permalink": "https://nypost.com/2018/01/26/joakim-noah-leaves-knicks-in-dark-over-return-date/amp/?__twitter_impression=true",
            "outline": {
                "text": "Knicks fear Noah not back till next week, double down on trade talks.",
                "created": "Fri, 26 Jan 2018 19:26:57 GMT",
                "type": "tweet",
                "tweetid": "956971745352867841",
                "tweetusername": "davewiner"
            },
            "pubdate": "2018-01-26T19:26:57.000Z",
            "comments": "",
            "feedUrl": "http://radio3.io/users/davewiner/rss.xml",
            "when": "2018-01-26T20:54:56.121Z",
            "aggregator": "River5 v0.6.2",
            "id": 128
        },
        {
            "title": "",
            "link": "http://blogs.harvard.edu/philg/2018/01/26/are-academics-who-teach-software-development-methodologies-teaching-the-lessons-of-failure/?utm_source=dlvr.it&utm_medium=twitter",
            "description": "Are academics who teach software development methodologies teaching the lessons of failure?",
            "permalink": "http://blogs.harvard.edu/philg/2018/01/26/are-academics-who-teach-software-development-methodologies-teaching-the-lessons-of-failure/?utm_source=dlvr.it&utm_medium=twitter",
            "outline": {
                "text": "Are academics who teach software development methodologies teaching the lessons of failure?",
                "created": "Fri, 26 Jan 2018 18:52:33 GMT",
                "type": "tweet",
                "tweetid": "956963090511421440",
                "tweetusername": "davewiner"
            },
            "pubdate": "2018-01-26T18:52:33.000Z",
            "comments": "",
            "feedUrl": "http://radio3.io/users/davewiner/rss.xml",
            "when": "2018-01-26T20:54:56.122Z",
            "aggregator": "River5 v0.6.2",
            "id": 129
        },
        {
            "title": "",
            "link": "http://scripting.com/2018/01/26/181453.html",
            "description": "Does Facebook really do open source?",
            "permalink": "http://scripting.com/2018/01/26/181453.html",
            "outline": {
                "text": "Does Facebook really do open source?",
                "created": "Fri, 26 Jan 2018 18:30:11 GMT",
                "type": "tweet",
                "tweetid": "956957460820123649",
                "tweetusername": "davewiner"
            },
            "pubdate": "2018-01-26T18:30:11.000Z",
            "comments": "",
            "feedUrl": "http://radio3.io/users/davewiner/rss.xml",
            "when": "2018-01-26T20:54:56.122Z",
            "aggregator": "River5 v0.6.2",
            "id": 130
        },
        {
            "title": "",
            "link": "https://www.politico.com/story/2018/01/26/trump-immigration-proposal-chuck-schumer-371139",
            "description": "Schumer may have made a tactical mistake. Now the Repubs can say that Dems blocked citizenship for Dreamers. Might have been better to make a counter-proposal with no funding for the wall and without the other stuff.",
            "permalink": "https://www.politico.com/story/2018/01/26/trump-immigration-proposal-chuck-schumer-371139",
            "outline": {
                "text": "Schumer may have made a tactical mistake. Now the Repubs can say that Dems blocked citizenship for Dreamers. Might have been better to make a counter-proposal with no funding for the wall and without the other stuff.",
                "created": "Fri, 26 Jan 2018 18:06:24 GMT",
                "type": "tweet",
                "tweetid": "956951473434386432",
                "tweetusername": "davewiner"
            },
            "pubdate": "2018-01-26T18:06:24.000Z",
            "comments": "",
            "feedUrl": "http://radio3.io/users/davewiner/rss.xml",
            "when": "2018-01-26T20:54:56.122Z",
            "aggregator": "River5 v0.6.2",
            "id": 131
        },
        {
            "title": "",
            "link": "https://www.newyorker.com/magazine/2018/01/15/when-deportation-is-a-death-sentence",
            "description": "When Deportation Is a Death Sentence.",
            "permalink": "https://www.newyorker.com/magazine/2018/01/15/when-deportation-is-a-death-sentence",
            "outline": {
                "text": "When Deportation Is a Death Sentence.",
                "created": "Fri, 26 Jan 2018 17:29:08 GMT",
                "type": "tweet",
                "tweetid": "956942097122242560",
                "tweetusername": "davewiner"
            },
            "pubdate": "2018-01-26T17:29:08.000Z",
            "comments": "",
            "feedUrl": "http://radio3.io/users/davewiner/rss.xml",
            "when": "2018-01-26T20:54:56.123Z",
            "aggregator": "River5 v0.6.2",
            "id": 132
        },
        {
            "title": "",
            "link": "https://www.theverge.com/2018/1/26/16932350/ice-immigration-customs-license-plate-recognition-contract-vigilant-solutions",
            "description": "ICE has struck a deal to track license plates across the US.",
            "permalink": "https://www.theverge.com/2018/1/26/16932350/ice-immigration-customs-license-plate-recognition-contract-vigilant-solutions",
            "outline": {
                "text": "ICE has struck a deal to track license plates across the US.",
                "created": "Fri, 26 Jan 2018 14:48:02 GMT",
                "type": "tweet",
                "tweetid": "956901553973219328",
                "tweetusername": "davewiner"
            },
            "pubdate": "2018-01-26T14:48:02.000Z",
            "comments": "",
            "feedUrl": "http://radio3.io/users/davewiner/rss.xml",
            "when": "2018-01-26T20:54:56.123Z",
            "aggregator": "River5 v0.6.2",
            "id": 133
        },
        {
            "title": "",
            "link": "https://www.bloomberg.com/news/articles/2018-01-26/u-s-is-about-to-get-real-cold-again-blame-it-on-global-warming?utm_content=tv&utm_campaign=socialflow-organic&utm_source=twitter&utm_medium=social&cmpid%20percent3D=socialflow-twitter-tv",
            "description": "The U.S. Is About to Get Real Cold Again. Blame It on Global Warming.",
            "permalink": "https://www.bloomberg.com/news/articles/2018-01-26/u-s-is-about-to-get-real-cold-again-blame-it-on-global-warming?utm_content=tv&utm_campaign=socialflow-organic&utm_source=twitter&utm_medium=social&cmpid percent3D=socialflow-twitter-tv",
            "outline": {
                "text": "The U.S. Is About to Get Real Cold Again. Blame It on Global Warming.",
                "created": "Fri, 26 Jan 2018 14:38:16 GMT",
                "type": "tweet",
                "tweetid": "956899093980352513",
                "tweetusername": "davewiner"
            },
            "pubdate": "2018-01-26T14:38:16.000Z",
            "comments": "",
            "feedUrl": "http://radio3.io/users/davewiner/rss.xml",
            "when": "2018-01-26T20:54:56.124Z",
            "aggregator": "River5 v0.6.2",
            "id": 134
        },
        {
            "title": "",
            "link": "http://scripting.com/liveblog/users/davewiner/2015/12/21/0681.html",
            "description": "Until recently the meaning in our lives was survival. If we created a new generation of humans to follow us, that was enough meaning.",
            "permalink": "http://scripting.com/liveblog/users/davewiner/2015/12/21/0681.html",
            "outline": {
                "text": "Until recently the meaning in our lives was survival. If we created a new generation of humans to follow us, that was enough meaning.",
                "created": "Fri, 26 Jan 2018 08:58:05 GMT",
                "type": "tweet",
                "tweetid": "956813486218149888",
                "tweetusername": "davewiner"
            },
            "pubdate": "2018-01-26T08:58:05.000Z",
            "comments": "",
            "feedUrl": "http://radio3.io/users/davewiner/rss.xml",
            "when": "2018-01-26T20:54:56.124Z",
            "aggregator": "River5 v0.6.2",
            "id": 135
        },
        {
            "title": "",
            "link": "https://jsnes.fir.sh/",
            "description": "A JavaScript NES emulator.",
            "permalink": "https://jsnes.fir.sh/",
            "outline": {
                "text": "A JavaScript NES emulator.",
                "created": "Fri, 26 Jan 2018 08:56:39 GMT",
                "type": "tweet",
                "tweetid": "956813128712499201",
                "tweetusername": "davewiner"
            },
            "pubdate": "2018-01-26T08:56:39.000Z",
            "comments": "",
            "feedUrl": "http://radio3.io/users/davewiner/rss.xml",
            "when": "2018-01-26T20:54:56.124Z",
            "aggregator": "River5 v0.6.2",
            "id": 136
        },
        {
            "title": "",
            "link": "https://newrepublic.com/article/146765/judging-larry-nassar",
            "description": "Why Rosemarie Aquilina’s handling of a serial sex abusers case was so problematic.",
            "permalink": "https://newrepublic.com/article/146765/judging-larry-nassar",
            "outline": {
                "text": "Why Rosemarie Aquilina’s handling of a serial sex abusers case was so problematic.",
                "created": "Fri, 26 Jan 2018 02:59:05 GMT",
                "type": "tweet",
                "tweetid": "956723143195987969",
                "tweetusername": "davewiner"
            },
            "pubdate": "2018-01-26T02:59:05.000Z",
            "comments": "",
            "feedUrl": "http://radio3.io/users/davewiner/rss.xml",
            "when": "2018-01-26T20:54:56.124Z",
            "aggregator": "River5 v0.6.2",
            "id": 137
        },
        {
            "title": "",
            "link": "http://www.espn.com/nba/story/_/id/22210182/who-won-2018-nba-all-star-draft-lebron-james-vs-stephen-curry?device=featurephone",
            "description": "\"Have Joel Embiid switch teams at halftime. He can talk smack to one group for 24 minutes, then link arms with them, implore them to Trust The Process, and lather up the other half of the league for the final two quarters.\"",
            "permalink": "http://www.espn.com/nba/story/_/id/22210182/who-won-2018-nba-all-star-draft-lebron-james-vs-stephen-curry?device=featurephone",
            "outline": {
                "text": "\"Have Joel Embiid switch teams at halftime. He can talk smack to one group for 24 minutes, then link arms with them, implore them to Trust The Process, and lather up the other half of the league for the final two quarters.\"",
                "created": "Fri, 26 Jan 2018 02:40:23 GMT",
                "type": "tweet",
                "tweetid": "956718437551755264",
                "tweetusername": "davewiner"
            },
            "pubdate": "2018-01-26T02:40:23.000Z",
            "comments": "",
            "feedUrl": "http://radio3.io/users/davewiner/rss.xml",
            "when": "2018-01-26T20:54:56.125Z",
            "aggregator": "River5 v0.6.2",
            "id": 138
        },
        {
            "title": "",
            "link": "https://www.nytimes.com/2018/01/25/us/politics/trump-mueller-special-counsel-russia.html#click=https://t.co/aTryuohwm7",
            "description": "Trump Ordered Mueller Fired, but Backed Off When White House Counsel Threatened to Quit.",
            "permalink": "https://www.nytimes.com/2018/01/25/us/politics/trump-mueller-special-counsel-russia.html#click=https://t.co/aTryuohwm7",
            "outline": {
                "text": "Trump Ordered Mueller Fired, but Backed Off When White House Counsel Threatened to Quit.",
                "created": "Fri, 26 Jan 2018 01:32:05 GMT",
                "type": "tweet",
                "tweetid": "956701246286696448",
                "tweetusername": "davewiner"
            },
            "pubdate": "2018-01-26T01:32:05.000Z",
            "comments": "",
            "feedUrl": "http://radio3.io/users/davewiner/rss.xml",
            "when": "2018-01-26T20:54:56.125Z",
            "aggregator": "River5 v0.6.2",
            "id": 139
        },
        {
            "title": "",
            "link": "http://www.elle.com/culture/a15855944/womens-march-2018-media-attention-coverage/",
            "description": "Between 1.6 and 2.5 million people participated in women's marches around the world this weekend.",
            "permalink": "http://www.elle.com/culture/a15855944/womens-march-2018-media-attention-coverage/",
            "outline": {
                "text": "Between 1.6 and 2.5 million people participated in women's marches around the world this weekend.",
                "created": "Fri, 26 Jan 2018 01:08:12 GMT",
                "type": "tweet",
                "tweetid": "956695235870027776",
                "tweetusername": "davewiner"
            },
            "pubdate": "2018-01-26T01:08:12.000Z",
            "comments": "",
            "feedUrl": "http://radio3.io/users/davewiner/rss.xml",
            "when": "2018-01-26T20:54:56.125Z",
            "aggregator": "River5 v0.6.2",
            "id": 140
        },
        {
            "title": "",
            "link": "https://www.nytimes.com/2018/01/24/opinion/larry-nassar-gymnastics-sentencing.html?partner=rss&emc=rss",
            "description": "Adults who suspect a predator is on the prowl and do nothing are simply monsters in another form.",
            "permalink": "https://www.nytimes.com/2018/01/24/opinion/larry-nassar-gymnastics-sentencing.html?partner=rss&emc=rss",
            "outline": {
                "text": "Adults who suspect a predator is on the prowl and do nothing are simply monsters in another form.",
                "created": "Fri, 26 Jan 2018 01:02:52 GMT",
                "type": "tweet",
                "tweetid": "956693895072632833",
                "tweetusername": "davewiner"
            },
            "pubdate": "2018-01-26T01:02:52.000Z",
            "comments": "",
            "feedUrl": "http://radio3.io/users/davewiner/rss.xml",
            "when": "2018-01-26T20:54:56.125Z",
            "aggregator": "River5 v0.6.2",
            "id": 141
        },
        {
            "title": "",
            "link": "https://finance.yahoo.com/news/george-soros-says-facebook-googles-days-numbered-232153289.html",
            "description": "George Soros slams Facebook and Google.",
            "permalink": "https://finance.yahoo.com/news/george-soros-says-facebook-googles-days-numbered-232153289.html",
            "outline": {
                "text": "George Soros slams Facebook and Google.",
                "created": "Thu, 25 Jan 2018 23:55:02 GMT",
                "type": "tweet",
                "tweetid": "956676826025349120",
                "tweetusername": "davewiner"
            },
            "pubdate": "2018-01-25T23:55:02.000Z",
            "comments": "",
            "feedUrl": "http://radio3.io/users/davewiner/rss.xml",
            "when": "2018-01-26T20:54:56.125Z",
            "aggregator": "River5 v0.6.2",
            "id": 142
        },
        {
            "title": "",
            "link": "http://inessential.com/2018/01/25/evergreen_diary_9_on_indieweb",
            "description": "Brent has a change of heart re IndieWeb.",
            "permalink": "http://inessential.com/2018/01/25/evergreen_diary_9_on_indieweb",
            "outline": {
                "text": "Brent has a change of heart re IndieWeb.",
                "created": "Thu, 25 Jan 2018 23:17:26 GMT",
                "type": "tweet",
                "tweetid": "956667359267344388",
                "tweetusername": "davewiner"
            },
            "pubdate": "2018-01-25T23:17:26.000Z",
            "comments": "",
            "feedUrl": "http://radio3.io/users/davewiner/rss.xml",
            "when": "2018-01-26T20:54:56.125Z",
            "aggregator": "River5 v0.6.2",
            "id": 143
        },
        {
            "title": "",
            "link": "http://www.quantum.danconover.com/the-republic-is-doomed-heres-why/",
            "description": "Dan Conover: The Republic is doomed. Here’s why.",
            "permalink": "http://www.quantum.danconover.com/the-republic-is-doomed-heres-why/",
            "outline": {
                "text": "Dan Conover: The Republic is doomed. Here’s why.",
                "created": "Thu, 25 Jan 2018 22:55:10 GMT",
                "type": "tweet",
                "tweetid": "956661758667698177",
                "tweetusername": "davewiner"
            },
            "pubdate": "2018-01-25T22:55:10.000Z",
            "comments": "",
            "feedUrl": "http://radio3.io/users/davewiner/rss.xml",
            "when": "2018-01-26T20:54:56.125Z",
            "aggregator": "River5 v0.6.2",
            "id": 144
        },
        {
            "title": "",
            "link": "https://www.reuters.com/article/us-netherlands-russia-cybercrime/dutch-intelligence-agency-spied-on-russian-hacking-group-media-idUSKBN1FE34W",
            "description": "Dutch intelligence agency spied on Russian hacking group.",
            "permalink": "https://www.reuters.com/article/us-netherlands-russia-cybercrime/dutch-intelligence-agency-spied-on-russian-hacking-group-media-idUSKBN1FE34W",
            "outline": {
                "text": "Dutch intelligence agency spied on Russian hacking group.",
                "created": "Thu, 25 Jan 2018 22:42:39 GMT",
                "type": "tweet",
                "tweetid": "956658607919116295",
                "tweetusername": "davewiner"
            },
            "pubdate": "2018-01-25T22:42:39.000Z",
            "comments": "",
            "feedUrl": "http://radio3.io/users/davewiner/rss.xml",
            "when": "2018-01-26T20:54:56.125Z",
            "aggregator": "River5 v0.6.2",
            "id": 145
        },
        {
            "title": "",
            "link": "https://en.wikiquote.org/wiki/Finley_Peter_Dunne",
            "description": "\"The job of the newspaper is to comfort the afflicted and afflict the comfortable.\"",
            "permalink": "https://en.wikiquote.org/wiki/Finley_Peter_Dunne",
            "outline": {
                "text": "\"The job of the newspaper is to comfort the afflicted and afflict the comfortable.\"",
                "created": "Thu, 25 Jan 2018 22:13:43 GMT",
                "type": "tweet",
                "tweetid": "956651325416144896",
                "tweetusername": "davewiner"
            },
            "pubdate": "2018-01-25T22:13:43.000Z",
            "comments": "",
            "feedUrl": "http://radio3.io/users/davewiner/rss.xml",
            "when": "2018-01-26T20:54:56.125Z",
            "aggregator": "River5 v0.6.2",
            "id": 146
        },
        {
            "title": "",
            "link": "http://podcatch.com/archive/2018/01/25/61195.html",
            "description": "A remarkable historic episode of the Daily podcast on the end of the trial of Dr Lawrence Nassar. Each of the survivors spoke directly to Nassar, publicly, before he was sentenced.",
            "permalink": "http://podcatch.com/archive/2018/01/25/61195.html",
            "outline": {
                "text": "A remarkable historic episode of the Daily podcast on the end of the trial of Dr Lawrence Nassar. Each of the survivors spoke directly to Nassar, publicly, before he was sentenced.",
                "created": "Thu, 25 Jan 2018 21:39:15 GMT",
                "type": "tweet",
                "tweetid": "956642652900003841",
                "tweetusername": "davewiner"
            },
            "pubdate": "2018-01-25T21:39:15.000Z",
            "comments": "",
            "feedUrl": "http://radio3.io/users/davewiner/rss.xml",
            "when": "2018-01-26T20:54:56.126Z",
            "aggregator": "River5 v0.6.2",
            "id": 147
        },
        {
            "title": "",
            "link": "https://www.washingtonpost.com/local/dc-politics/the-white-house-wanted-a-van-gogh-the-guggenheim-offered-a-used-solid-gold-toilet/2018/01/25/38d574fc-0154-11e8-bb03-722769454f82_story.html?utm_term=.216c6e492153",
            "description": "The Trumps asked to borrow a Van Gogh but the Guggenheim offered a solid gold toilet instead.",
            "permalink": "https://www.washingtonpost.com/local/dc-politics/the-white-house-wanted-a-van-gogh-the-guggenheim-offered-a-used-solid-gold-toilet/2018/01/25/38d574fc-0154-11e8-bb03-722769454f82_story.html?utm_term=.216c6e492153",
            "outline": {
                "text": "The Trumps asked to borrow a Van Gogh but the Guggenheim offered a solid gold toilet instead.",
                "created": "Thu, 25 Jan 2018 19:45:52 GMT",
                "type": "tweet",
                "tweetid": "956614120530481152",
                "tweetusername": "davewiner"
            },
            "pubdate": "2018-01-25T19:45:52.000Z",
            "comments": "",
            "feedUrl": "http://radio3.io/users/davewiner/rss.xml",
            "when": "2018-01-26T20:54:56.126Z",
            "aggregator": "River5 v0.6.2",
            "id": 148
        },
        {
            "title": "",
            "link": "https://qz.com/1187566/spaceship-media-will-pair-5000-women-on-facebook-to-repair-the-rift-in-us-politics/",
            "description": "Spaceship Media will pair 5,000 women on Facebook to repair the rift in US politics.",
            "permalink": "https://qz.com/1187566/spaceship-media-will-pair-5000-women-on-facebook-to-repair-the-rift-in-us-politics/",
            "outline": {
                "text": "Spaceship Media will pair 5,000 women on Facebook to repair the rift in US politics.",
                "created": "Thu, 25 Jan 2018 19:43:23 GMT",
                "type": "tweet",
                "tweetid": "956613492181790721",
                "tweetusername": "davewiner"
            },
            "pubdate": "2018-01-25T19:43:23.000Z",
            "comments": "",
            "feedUrl": "http://radio3.io/users/davewiner/rss.xml",
            "when": "2018-01-26T20:54:56.126Z",
            "aggregator": "River5 v0.6.2",
            "id": 149
        },
        {
            "title": "",
            "link": "http://nymag.com/daily/intelligencer/2018/01/paul-ryan-silent-partner-in-trumps-war-on-the-rule-of-law.html",
            "description": "Paul Ryan, Silent Partner in Trump’s War on the Rule of Law. #mustread",
            "permalink": "http://nymag.com/daily/intelligencer/2018/01/paul-ryan-silent-partner-in-trumps-war-on-the-rule-of-law.html",
            "outline": {
                "text": "Paul Ryan, Silent Partner in Trump’s War on the Rule of Law. #mustread",
                "created": "Thu, 25 Jan 2018 18:27:51 GMT",
                "type": "tweet",
                "tweetid": "956594483931570177",
                "tweetusername": "davewiner"
            },
            "pubdate": "2018-01-25T18:27:51.000Z",
            "comments": "",
            "feedUrl": "http://radio3.io/users/davewiner/rss.xml",
            "when": "2018-01-26T20:54:56.126Z",
            "aggregator": "River5 v0.6.2",
            "id": 150
        }
    ]
}