{
    "ctItemsAdded": 56,
    "whenLastItemAdded": "2018-01-26T20:54:57.030Z",
    "ctSaves": 1,
    "whenLastSave": "2018-01-26T20:54:58.269Z",
    "flDirty": false,
    "ctRiverBuilds": 0,
    "whenLastRiverBuild": "1970-01-01T00:00:00.000Z",
    "items": [
        {
            "title": "Service is operating normally: [RESOLVED] Increased Launch Error Rates",
            "link": "http://status.aws.amazon.com/",
            "description": "Between 5:39 AM and 7:02 AM PST we experienced increased error rates for instance launches in a single Availability Zone in the US-EAST-1 Region. Existing instances were unaffected. The issue has been resolved and the service is operating normally.",
            "permalink": "http://status.aws.amazon.com/#ec2-us-east-1_1510672500",
            "pubdate": "2017-11-14T15:15:00.000Z",
            "comments": "",
            "feedUrl": "http://status.aws.amazon.com/rss/ec2-us-east-1.rss",
            "when": "2018-01-26T20:54:53.862Z",
            "aggregator": "River5 v0.6.2",
            "id": 0
        },
        {
            "title": "Service is operating normally: [RESOLVED] Increased Launch Error Rates",
            "link": "http://status.aws.amazon.com/",
            "description": "We are investigating increased error rates for new launches in a single Availability Zone in the US-EAST-1 Region.",
            "permalink": "http://status.aws.amazon.com/#ec2-us-east-1_1510670880",
            "pubdate": "2017-11-14T14:48:00.000Z",
            "comments": "",
            "feedUrl": "http://status.aws.amazon.com/rss/ec2-us-east-1.rss",
            "when": "2018-01-26T20:54:53.863Z",
            "aggregator": "River5 v0.6.2",
            "id": 1
        },
        {
            "title": "Service is operating normally: [RESOLVED] Network Connectivity",
            "link": "http://status.aws.amazon.com/",
            "description": "We have remediated the connectivity issues that were affecting some instances in the US-EAST-1 Region. The issue has been resolved and the service is operating normally.",
            "permalink": "http://status.aws.amazon.com/#ec2-us-east-1_1507943705",
            "pubdate": "2017-10-14T01:15:05.000Z",
            "comments": "",
            "feedUrl": "http://status.aws.amazon.com/rss/ec2-us-east-1.rss",
            "when": "2018-01-26T20:54:53.864Z",
            "aggregator": "River5 v0.6.2",
            "id": 2
        },
        {
            "title": "Informational message: Network Connectivity",
            "link": "http://status.aws.amazon.com/",
            "description": "Connectivity to most of the affected instances has been restored. We are continuing to work to remediate connectivity to all instances.",
            "permalink": "http://status.aws.amazon.com/#ec2-us-east-1_1507942145",
            "pubdate": "2017-10-14T00:49:05.000Z",
            "comments": "",
            "feedUrl": "http://status.aws.amazon.com/rss/ec2-us-east-1.rss",
            "when": "2018-01-26T20:54:53.864Z",
            "aggregator": "River5 v0.6.2",
            "id": 3
        },
        {
            "title": "Informational message: Network Connectivity",
            "link": "http://status.aws.amazon.com/",
            "description": "We continue to work toward full recovery. For customers that are still seeing impact, you can perform a Stop/Start to resolve the issue.  More information on how to Stop/Start your instance can be found here.",
            "permalink": "http://status.aws.amazon.com/#ec2-us-east-1_1507940282",
            "pubdate": "2017-10-14T00:18:02.000Z",
            "comments": "",
            "feedUrl": "http://status.aws.amazon.com/rss/ec2-us-east-1.rss",
            "when": "2018-01-26T20:54:53.864Z",
            "aggregator": "River5 v0.6.2",
            "id": 4
        },
        {
            "title": "Informational message: Network Connectivity",
            "link": "http://status.aws.amazon.com/",
            "description": "We can confirm connectivity issues to some instances in the US-EAST-1 Region. We have identified the root cause and are working to resolve.",
            "permalink": "http://status.aws.amazon.com/#ec2-us-east-1_1507936070",
            "pubdate": "2017-10-13T23:07:50.000Z",
            "comments": "",
            "feedUrl": "http://status.aws.amazon.com/rss/ec2-us-east-1.rss",
            "when": "2018-01-26T20:54:53.864Z",
            "aggregator": "River5 v0.6.2",
            "id": 5
        },
        {
            "title": "Informational message: Network Connectivity",
            "link": "http://status.aws.amazon.com/",
            "description": "We are investigating intermittent connectivity issues to a single Availability Zone in the US-EAST-1 Region.",
            "permalink": "http://status.aws.amazon.com/#ec2-us-east-1_1507934186",
            "pubdate": "2017-10-13T22:36:26.000Z",
            "comments": "",
            "feedUrl": "http://status.aws.amazon.com/rss/ec2-us-east-1.rss",
            "when": "2018-01-26T20:54:53.864Z",
            "aggregator": "River5 v0.6.2",
            "id": 6
        },
        {
            "title": "Service is operating normally: [RESOLVED]  Increased Launch Error Rates",
            "link": "http://status.aws.amazon.com/",
            "description": "Between 9:45 PM and 11:37 PM PDT we experienced increased error rates for EBS-backed instance launches and EBS-related APIs in the US-EAST-1 Region. Existing instances were unaffected. The issue has been resolved and the service is operating normally.",
            "permalink": "http://status.aws.amazon.com/#ec2-us-east-1_1507531911",
            "pubdate": "2017-10-09T06:51:51.000Z",
            "comments": "",
            "feedUrl": "http://status.aws.amazon.com/rss/ec2-us-east-1.rss",
            "when": "2018-01-26T20:54:53.864Z",
            "aggregator": "River5 v0.6.2",
            "id": 7
        },
        {
            "title": "Informational message:  Increased Launch Error Rates",
            "link": "http://status.aws.amazon.com/",
            "description": "We continue to investigate increased error rates for new EBS-backed instance launches and EBS-related APIs in the US-EAST-1 Region. Existing instances are unaffected.",
            "permalink": "http://status.aws.amazon.com/#ec2-us-east-1_1507530738",
            "pubdate": "2017-10-09T06:32:18.000Z",
            "comments": "",
            "feedUrl": "http://status.aws.amazon.com/rss/ec2-us-east-1.rss",
            "when": "2018-01-26T20:54:53.864Z",
            "aggregator": "River5 v0.6.2",
            "id": 8
        },
        {
            "title": "Informational message:  Increased Launch Error Rates",
            "link": "http://status.aws.amazon.com/",
            "description": "We are investigating increased error rates for new EBS-backed instance launches and EBS-related APIs in the US-EAST-1 Region.",
            "permalink": "http://status.aws.amazon.com/#ec2-us-east-1_1507528080",
            "pubdate": "2017-10-09T05:48:00.000Z",
            "comments": "",
            "feedUrl": "http://status.aws.amazon.com/rss/ec2-us-east-1.rss",
            "when": "2018-01-26T20:54:53.864Z",
            "aggregator": "River5 v0.6.2",
            "id": 9
        },
        {
            "title": "Service is operating normally: [RESOLVED] Network Connectivity",
            "link": "http://status.aws.amazon.com/",
            "description": "Between 4:24 PM and 5:09 PM PDT some instances were unreachable and some EBS volumes experienced degraded performance in a single Availability Zone in the US-EAST-1 Region. The issue has been resolved and the service is operating normally.",
            "permalink": "http://status.aws.amazon.com/#ec2-us-east-1_1501719793",
            "pubdate": "2017-08-03T00:23:13.000Z",
            "comments": "",
            "feedUrl": "http://status.aws.amazon.com/rss/ec2-us-east-1.rss",
            "when": "2018-01-26T20:54:53.864Z",
            "aggregator": "River5 v0.6.2",
            "id": 10
        },
        {
            "title": "Informational message: Network Connectivity",
            "link": "http://status.aws.amazon.com/",
            "description": "We have identified the root cause and are beginning to see recovery for instances and EBS volumes in the affected Availability Zone in the US-EAST-1 Region. We continue to work toward full resolution.",
            "permalink": "http://status.aws.amazon.com/#ec2-us-east-1_1501718710",
            "pubdate": "2017-08-03T00:05:10.000Z",
            "comments": "",
            "feedUrl": "http://status.aws.amazon.com/rss/ec2-us-east-1.rss",
            "when": "2018-01-26T20:54:53.864Z",
            "aggregator": "River5 v0.6.2",
            "id": 11
        },
        {
            "title": "Informational message: Network Connectivity",
            "link": "http://status.aws.amazon.com/",
            "description": "We can confirm that some instances are unreachable and some EBS volumes are experiencing degraded performance in a single Availability Zone in the US-EAST-1 Region. Engineers are engaged and we are working to resolve the issue.",
            "permalink": "http://status.aws.amazon.com/#ec2-us-east-1_1501718315",
            "pubdate": "2017-08-02T23:58:35.000Z",
            "comments": "",
            "feedUrl": "http://status.aws.amazon.com/rss/ec2-us-east-1.rss",
            "when": "2018-01-26T20:54:53.865Z",
            "aggregator": "River5 v0.6.2",
            "id": 12
        },
        {
            "title": "Informational message: Network Connectivity",
            "link": "http://status.aws.amazon.com/",
            "description": "We are investigating network connectivity issues for some instances in a single Availability Zone in the US-EAST-1 Region.",
            "permalink": "http://status.aws.amazon.com/#ec2-us-east-1_1501716984",
            "pubdate": "2017-08-02T23:36:24.000Z",
            "comments": "",
            "feedUrl": "http://status.aws.amazon.com/rss/ec2-us-east-1.rss",
            "when": "2018-01-26T20:54:53.865Z",
            "aggregator": "River5 v0.6.2",
            "id": 13
        },
        {
            "title": "Service is operating normally: [RESOLVED] Network Connectivity",
            "link": "http://status.aws.amazon.com/",
            "description": "Between 6:47 AM and 7:10 AM PDT we experienced increased launch failures for EC2 Instances, degraded EBS volume performance and connectivity issues for some instances in a single Availability Zone in the US-EAST-1 Region. The issue has been resolved and the service is operating ...",
            "permalink": "http://status.aws.amazon.com/#ec2-us-east-1_1501165680",
            "pubdate": "2017-07-27T14:28:00.000Z",
            "comments": "",
            "feedUrl": "http://status.aws.amazon.com/rss/ec2-us-east-1.rss",
            "when": "2018-01-26T20:54:53.865Z",
            "aggregator": "River5 v0.6.2",
            "id": 14
        },
        {
            "title": "BART&amp;#039;s new train cars now in service",
            "link": "http://www.bart.gov/news/articles/2018/news20180119?rss",
            "description": "BART&rsquo;s new Fleet of the Future train is here. The very first customers to ride the new train...",
            "permalink": "http://www.bart.gov/news/articles/2018/news20180119",
            "pubdate": "2018-01-26T20:54:54.315Z",
            "comments": "",
            "feedUrl": "http://www.bart.gov/news/rss/rss.xml",
            "when": "2018-01-26T20:54:54.315Z",
            "aggregator": "River5 v0.6.2",
            "id": 15
        },
        {
            "title": "Monthly Reserved parking waitlist for Antioch stations UPDATE",
            "link": "http://www.bart.gov/news/articles/2018/news20180104?rss",
            "description": "UPDATE:Select-a-spot (our parking permit vendor) was unable to open up the list yesterday (1/16)...",
            "permalink": "http://www.bart.gov/news/articles/2018/news20180104",
            "pubdate": "2018-01-26T20:54:54.315Z",
            "comments": "",
            "feedUrl": "http://www.bart.gov/news/rss/rss.xml",
            "when": "2018-01-26T20:54:54.315Z",
            "aggregator": "River5 v0.6.2",
            "id": 16
        },
        {
            "title": "BART’s newest bike station is a first for Contra Costa County",
            "link": "http://www.bart.gov/news/articles/2018/news20180117?rss",
            "description": "BART is taking a major step forward in promoting bicycle access in Contra Costa County by opening...",
            "permalink": "http://www.bart.gov/news/articles/2018/news20180117",
            "pubdate": "2018-01-26T20:54:54.315Z",
            "comments": "",
            "feedUrl": "http://www.bart.gov/news/rss/rss.xml",
            "when": "2018-01-26T20:54:54.315Z",
            "aggregator": "River5 v0.6.2",
            "id": 17
        },
        {
            "title": "Get Clipper and Save! New fares effective Jan. 1, 2018",
            "link": "http://www.bart.gov/news/articles/2017/news20171201?rss",
            "description": "&nbsp;&nbsp;&nbsp;&nbsp;&nbsp;&nbsp;&nbsp;&nbsp;&nbsp;&nbsp;&nbsp;On January 1, 2018, a number of...",
            "permalink": "http://www.bart.gov/news/articles/2017/news20171201",
            "pubdate": "2018-01-26T20:54:54.316Z",
            "comments": "",
            "feedUrl": "http://www.bart.gov/news/rss/rss.xml",
            "when": "2018-01-26T20:54:54.316Z",
            "aggregator": "River5 v0.6.2",
            "id": 18
        },
        {
            "title": "Teens can now get a big discount on BART with a Youth Clipper card",
            "link": "http://www.bart.gov/news/articles/2017/news20171218?rss",
            "description": "&nbsp;By JIAHAO HUANGContributing Writer&nbsp;If you&rsquo;re 13-18 and have a school break coming...",
            "permalink": "http://www.bart.gov/news/articles/2017/news20171218",
            "pubdate": "2018-01-26T20:54:54.316Z",
            "comments": "",
            "feedUrl": "http://www.bart.gov/news/rss/rss.xml",
            "when": "2018-01-26T20:54:54.316Z",
            "aggregator": "River5 v0.6.2",
            "id": 19
        },
        {
            "title": "Longer loops help shorter straphangers and standees in short-term space solution",
            "link": "http://www.bart.gov/news/articles/2018/news20180111?rss",
            "description": "A car with modified seating, a short-term fix to increase capacity until new trains are in service...",
            "permalink": "http://www.bart.gov/news/articles/2018/news20180111",
            "pubdate": "2018-01-26T20:54:54.316Z",
            "comments": "",
            "feedUrl": "http://www.bart.gov/news/rss/rss.xml",
            "when": "2018-01-26T20:54:54.316Z",
            "aggregator": "River5 v0.6.2",
            "id": 20
        },
        {
            "title": "Seeking for a Local D.C. Host",
            "link": "https://code4lib.org/content/seeking-local-dc-host",
            "description": "Looking for any D.C. locals that could host a guest for the 2018 C4L. I'll be traveling from Philadelphia by car and am hoping to bike or metro to the Omni Shoreham Hotel. I have a potential registration that could be transferred to me if I can find boarding. Our travel budget ...",
            "permalink": "",
            "pubdate": "2018-01-22T21:02:16.000Z",
            "comments": "https://code4lib.org/content/seeking-local-dc-host#comments",
            "feedUrl": "http://code4lib.org/node/feed",
            "when": "2018-01-26T20:54:55.179Z",
            "aggregator": "River5 v0.6.2",
            "id": 21
        },
        {
            "title": "Issue 38 of the Code4Lib Journal",
            "link": "https://code4lib.org/content/issue-38-code4lib-journal",
            "description": "Issue 38 is now available!\nTable of Contents:\nEditorial: The Economics of Not Being an Organization\nby Carol Bean\nUsability Analysis of the Big Ten Academic Alliance Geoportal: Findings and Recommendations for Improvement of the User Experience\nby Mara Blake, Karen Majewicz, ...",
            "permalink": "",
            "pubdate": "2017-10-18T15:23:46.000Z",
            "comments": "https://code4lib.org/content/issue-38-code4lib-journal#comments",
            "feedUrl": "http://code4lib.org/node/feed",
            "when": "2018-01-26T20:54:55.179Z",
            "aggregator": "River5 v0.6.2",
            "id": 22
        },
        {
            "title": "Code4Lib 2018",
            "link": "https://code4lib.org/conference/2018",
            "description": "Topic:&nbsp;conferencesCode4Lib 2018 will be held from February 13-16, 2018, in Washington, D.C.\nMore information is available on the conference website at: http://2018.code4lib.org/",
            "permalink": "",
            "pubdate": "2017-08-08T22:07:24.000Z",
            "comments": "https://code4lib.org/conference/2018#comments",
            "feedUrl": "http://code4lib.org/node/feed",
            "when": "2018-01-26T20:54:55.179Z",
            "aggregator": "River5 v0.6.2",
            "id": 23
        },
        {
            "title": "Issue 37 of the Code4Lib Journal",
            "link": "https://code4lib.org/content/issue-37-code4lib-journal",
            "description": "Issue 37 of the Code4Lib Journal is now available.\nTable of Contents:\nEditorial: Welcome New Editors, What We Know About Who We Are, and Submission Pro Tip!\nby Sara Amato\nA Practical Starter Guide on Developing Accessible Websites\nby Cynthia Ng and Michael Schofield\nRecount: ...",
            "permalink": "",
            "pubdate": "2017-07-19T01:16:16.000Z",
            "comments": "https://code4lib.org/content/issue-37-code4lib-journal#comments",
            "feedUrl": "http://code4lib.org/node/feed",
            "when": "2018-01-26T20:54:55.179Z",
            "aggregator": "River5 v0.6.2",
            "id": 24
        },
        {
            "title": "Code4Lib Journal Issue 38 Call for Papers",
            "link": "https://code4lib.org/content/code4lib-journal-issue-38-call-papers",
            "description": "Topic:&nbsp;journalThe Code4Lib Journal (C4LJ) exists to foster community and share information among those interested in the intersection of libraries, technology, and the future.\nWe are now accepting proposals for publication in our 38th issue. Don't miss out on this ...",
            "permalink": "",
            "pubdate": "2017-06-12T15:17:09.000Z",
            "comments": "https://code4lib.org/content/code4lib-journal-issue-38-call-papers#comments",
            "feedUrl": "http://code4lib.org/node/feed",
            "when": "2018-01-26T20:54:55.179Z",
            "aggregator": "River5 v0.6.2",
            "id": 25
        },
        {
            "title": "Code4Lib Journal #34",
            "link": "https://code4lib.org/content/code4lib-journal-34",
            "description": "Topic:&nbsp;journalCode4Lib Journal #34 is now available.\nEditorial: Some Numbers, by Andrew Darby\nDigital Archaeology and/or Forensics: Working with Floppy Disks from the 1980s, by John Durno\nNeed Help with Your Code? Piloting a Programming and Software Development Consultation ...",
            "permalink": "",
            "pubdate": "2016-10-29T01:08:17.000Z",
            "comments": "https://code4lib.org/content/code4lib-journal-34#comments",
            "feedUrl": "http://code4lib.org/node/feed",
            "when": "2018-01-26T20:54:55.179Z",
            "aggregator": "River5 v0.6.2",
            "id": 26
        },
        {
            "title": "C4L17: Call for Presentation/Panel proposals",
            "link": "https://code4lib.org/content/c4l17-call-presentationpanel-proposals",
            "description": "Topic:&nbsp;conferencesCode4Lib 2017 is a loosely-structured conference that provides people working at the intersection of libraries/archives/museums/cultural heritage and technology with a chance to share ideas, be inspired, and forge collaborations. For more information about ...",
            "permalink": "",
            "pubdate": "2016-10-14T16:05:05.000Z",
            "comments": "https://code4lib.org/content/c4l17-call-presentationpanel-proposals#comments",
            "feedUrl": "http://code4lib.org/node/feed",
            "when": "2018-01-26T20:54:55.180Z",
            "aggregator": "River5 v0.6.2",
            "id": 27
        },
        {
            "title": "Code4Lib 2017",
            "link": "https://code4lib.org/conference/2017",
            "description": "The 2017 conference will be held from March 6 through March 9 in the at the Luskin Conference Center at UCLA. With a very large and modern conference center at our disposal, Code4Lib 2017 will be able to accommodate the growing number of attendees while also retaining that ...",
            "permalink": "",
            "pubdate": "2016-10-13T19:09:15.000Z",
            "comments": "https://code4lib.org/conference/2017#comments",
            "feedUrl": "http://code4lib.org/node/feed",
            "when": "2018-01-26T20:54:55.180Z",
            "aggregator": "River5 v0.6.2",
            "id": 28
        },
        {
            "title": "Code4Lib Journal #33",
            "link": "https://code4lib.org/content/code4lib-journal-33",
            "description": "Topic:&nbsp;journalIssue #33 of the Code4Lib Journal is now available:\nEditorial Introduction – Summer Reading List, by Ron Peterson\nEmflix – Gone Baby Gone, by Netanel Ganin\nIntroduction to Text Mining with R for Information Professionals, by Monica Maceli\nData for Decision ...",
            "permalink": "",
            "pubdate": "2016-07-19T15:32:07.000Z",
            "comments": "https://code4lib.org/content/code4lib-journal-33#comments",
            "feedUrl": "http://code4lib.org/node/feed",
            "when": "2018-01-26T20:54:55.180Z",
            "aggregator": "River5 v0.6.2",
            "id": 29
        },
        {
            "title": "Code4Lib Journal #32",
            "link": "https://code4lib.org/content/code4lib-journal-32",
            "description": "Topic:&nbsp;journal\nIssue #32 of the Code4Lib Journal is now available.\n\n Editorial  Introduction: People, by Meghan Finch\nAn Open-Source Strategy for Documenting Events: The Case Study of the 42nd Canadian Federal Election on Twitter by Nick Ruest and Ian Milligan\nHow to Party ...",
            "permalink": "",
            "pubdate": "2016-04-26T14:48:13.000Z",
            "comments": "https://code4lib.org/content/code4lib-journal-32#comments",
            "feedUrl": "http://code4lib.org/node/feed",
            "when": "2018-01-26T20:54:55.180Z",
            "aggregator": "River5 v0.6.2",
            "id": 30
        },
        {
            "title": "'The Maze Runner: The Death Cure': Nice Guy Finishes, At Last",
            "link": "https://www.npr.org/2018/01/26/579265353/the-maze-runner-the-death-cure-nice-guy-finishes-at-last?utm_medium=RSS&utm_campaign=movies",
            "description": "The longest, and last, of the Maze Runner films puts its bland teen heroes through the usual paces, but there are enough strong character actors around to keep things interesting.(Image credit: Twentieth Century Fox)",
            "permalink": "https://www.npr.org/2018/01/26/579265353/the-maze-runner-the-death-cure-nice-guy-finishes-at-last?utm_medium=RSS&utm_campaign=movies",
            "pubdate": "2018-01-26T20:00:46.000Z",
            "comments": "",
            "feedUrl": "http://www.npr.org/rss/rss.php?id=1045",
            "when": "2018-01-26T20:54:55.978Z",
            "aggregator": "River5 v0.6.2",
            "id": 111
        },
        {
            "title": "Casey Affleck Won't Be Presenting Statuettes At The Oscars",
            "link": "https://www.npr.org/sections/thetwo-way/2018/01/25/580815826/casey-affleck-wont-be-presenting-statuettes-at-the-oscars?utm_medium=RSS&utm_campaign=movies",
            "description": "The acclaimed actor has been dogged by two sexual harassment lawsuits filed against him by two separate women in 2010. The Academy says it appreciates his decision not to attend the ceremonies. (Image credit: Jordan Strauss/Jordan Strauss/Invision/AP)",
            "permalink": "https://www.npr.org/sections/thetwo-way/2018/01/25/580815826/casey-affleck-wont-be-presenting-statuettes-at-the-oscars?utm_medium=RSS&utm_campaign=movies",
            "pubdate": "2018-01-25T22:12:31.000Z",
            "comments": "",
            "feedUrl": "http://www.npr.org/rss/rss.php?id=1045",
            "when": "2018-01-26T20:54:55.978Z",
            "aggregator": "River5 v0.6.2",
            "id": 112
        },
        {
            "title": "In The Brutal Animated Film 'Have A Nice Day,' Nobody Does",
            "link": "https://www.npr.org/2018/01/25/579763911/in-the-brutal-animated-film-have-a-nice-day-nobody-does?utm_medium=RSS&utm_campaign=movies",
            "description": "In this indie animated film from China, a bag of money keeps changing hands in a ruthless criminal underworld depicted with a blunt and deliberate crudeness.(Image credit: Strand Releasing)",
            "permalink": "https://www.npr.org/2018/01/25/579763911/in-the-brutal-animated-film-have-a-nice-day-nobody-does?utm_medium=RSS&utm_campaign=movies",
            "pubdate": "2018-01-25T22:00:46.000Z",
            "comments": "",
            "feedUrl": "http://www.npr.org/rss/rss.php?id=1045",
            "when": "2018-01-26T20:54:55.978Z",
            "aggregator": "River5 v0.6.2",
            "id": 113
        },
        {
            "title": "On The Spectrum, With A Spec Script: 'Please Stand By'",
            "link": "https://www.npr.org/2018/01/25/579755614/on-the-spectrum-with-a-spec-script-please-stand-by?utm_medium=RSS&utm_campaign=movies",
            "description": "Dakota Fanning plays a young woman with autism determined to submit her Star Trek script to a screenwriting competition in this disappointingly soft coming-of-age tale.",
            "permalink": "https://www.npr.org/2018/01/25/579755614/on-the-spectrum-with-a-spec-script-please-stand-by?utm_medium=RSS&utm_campaign=movies",
            "pubdate": "2018-01-25T22:00:16.000Z",
            "comments": "",
            "feedUrl": "http://www.npr.org/rss/rss.php?id=1045",
            "when": "2018-01-26T20:54:55.978Z",
            "aggregator": "River5 v0.6.2",
            "id": 114
        },
        {
            "title": "In Gritty 'A Ciambra,' A Romani Teen Must Choose: His Friend, Or His Community?",
            "link": "https://www.npr.org/2018/01/25/579711983/in-gritty-a-ciambra-a-romani-teen-must-choose-his-friend-or-his-community?utm_medium=RSS&utm_campaign=movies",
            "description": "Writer-director Jonas Carpignano captures the street life of a Romani-Italian community in a way that's both uncompromisingly realistic and lyrical.(Image credit: IFC Films )",
            "permalink": "https://www.npr.org/2018/01/25/579711983/in-gritty-a-ciambra-a-romani-teen-must-choose-his-friend-or-his-community?utm_medium=RSS&utm_campaign=movies",
            "pubdate": "2018-01-25T22:00:16.000Z",
            "comments": "",
            "feedUrl": "http://www.npr.org/rss/rss.php?id=1045",
            "when": "2018-01-26T20:54:55.978Z",
            "aggregator": "River5 v0.6.2",
            "id": 115
        },
        {
            "title": "A Lavish Bollywood Musical Is Fueling A Culture War In India",
            "link": "https://www.npr.org/2018/01/25/580746654/a-lavish-bollywood-musical-is-fueling-a-culture-war-in-india?utm_medium=RSS&utm_campaign=movies",
            "description": "From the moment Padmaavat went into production, it's been plagued by violent protests over its depiction of Queen Padmavati, a legendary Hindu royal.(Image credit: Manjunath Kiran/AFP/Getty Images)",
            "permalink": "https://www.npr.org/2018/01/25/580746654/a-lavish-bollywood-musical-is-fueling-a-culture-war-in-india?utm_medium=RSS&utm_campaign=movies",
            "pubdate": "2018-01-25T21:21:00.000Z",
            "comments": "",
            "feedUrl": "http://www.npr.org/rss/rss.php?id=1045",
            "when": "2018-01-26T20:54:55.979Z",
            "aggregator": "River5 v0.6.2",
            "id": 116
        },
        {
            "title": "An Enchanting Love Triangle Unfolds In 'Lover For A Day'",
            "link": "https://www.npr.org/2018/01/25/580631637/an-enchanting-parisian-love-triangle-unfolds-in-lover-for-a-day?utm_medium=RSS&utm_campaign=movies",
            "description": "French filmmaker Philippe Garrel's new film follows a 50-something philosophy professor whose romantic relationship with a 23-year-old student is complicated when his grown daughter moves in.",
            "permalink": "https://www.npr.org/2018/01/25/580631637/an-enchanting-parisian-love-triangle-unfolds-in-lover-for-a-day?utm_medium=RSS&utm_campaign=movies",
            "pubdate": "2018-01-25T18:41:41.000Z",
            "comments": "",
            "feedUrl": "http://www.npr.org/rss/rss.php?id=1045",
            "when": "2018-01-26T20:54:55.979Z",
            "aggregator": "River5 v0.6.2",
            "id": 117
        },
        {
            "title": "A Superhero Movie Got A Screenplay Nomination: Glitch Or Game-Changer?",
            "link": "https://www.npr.org/sections/monkeysee/2018/01/25/580219918/a-superhero-movie-got-a-screenplay-nomination-glitch-or-game-changer?utm_medium=RSS&utm_campaign=movies",
            "description": "Some 40 years after Superman: The Movie launched the superhero film genre, a superhero movie earned an Oscar nomination outside of the tech categories. (And it wasn't Wonder Woman.)(Image credit: Ben Rothstein/Twentieth Century Fox)",
            "permalink": "https://www.npr.org/sections/monkeysee/2018/01/25/580219918/a-superhero-movie-got-a-screenplay-nomination-glitch-or-game-changer?utm_medium=RSS&utm_campaign=movies",
            "pubdate": "2018-01-25T11:00:00.000Z",
            "comments": "",
            "feedUrl": "http://www.npr.org/rss/rss.php?id=1045",
            "when": "2018-01-26T20:54:55.979Z",
            "aggregator": "River5 v0.6.2",
            "id": 118
        },
        {
            "title": "Violent Protests In India Follow Release Of Controversial Bollywood Epic",
            "link": "https://www.npr.org/sections/thetwo-way/2018/01/25/580569671/violent-protests-in-india-follow-release-of-controversial-bollywood-epic?utm_medium=RSS&utm_campaign=movies",
            "description": "Hindu nationalists ransacked shops and torched vehicles over the release of the film Padmaavat, which they say depicts a romantic encounter between a Hindu queen and a Muslim emperor.(Image credit: Dominique Faget/AFP/Getty Images)",
            "permalink": "https://www.npr.org/sections/thetwo-way/2018/01/25/580569671/violent-protests-in-india-follow-release-of-controversial-bollywood-epic?utm_medium=RSS&utm_campaign=movies",
            "pubdate": "2018-01-25T10:04:00.000Z",
            "comments": "",
            "feedUrl": "http://www.npr.org/rss/rss.php?id=1045",
            "when": "2018-01-26T20:54:55.979Z",
            "aggregator": "River5 v0.6.2",
            "id": 119
        },
        {
            "title": "Pop Culture Happy Hour: 'Phantom Thread'",
            "link": "https://www.npr.org/sections/monkeysee/2018/01/24/580103245/pop-culture-happy-hour-phantom-thread?utm_medium=RSS&utm_campaign=movies",
            "description": "Paul Thomas Anderson's story of a relationship between a mercurial dress designer in 1950s London and the young woman he begins seeing collected six Oscar nominations on Tuesday.(Image credit: Laurie Sparham /Focus Features)",
            "permalink": "https://www.npr.org/sections/monkeysee/2018/01/24/580103245/pop-culture-happy-hour-phantom-thread?utm_medium=RSS&utm_campaign=movies",
            "pubdate": "2018-01-24T18:21:00.000Z",
            "comments": "",
            "feedUrl": "http://www.npr.org/rss/rss.php?id=1045",
            "when": "2018-01-26T20:54:55.979Z",
            "aggregator": "River5 v0.6.2",
            "id": 120
        },
        {
            "title": "Breaking Down The 2018 Oscar Nominations",
            "link": "https://www.npr.org/2018/01/23/580076612/breaking-down-the-2018-oscar-nominations?utm_medium=RSS&utm_campaign=movies",
            "description": "The Oscar Nominations have arrived. NPR's Linda Holmes and Bob Mondello discuss the whys and wherefores behind both surprises and snubs from this year's contenders.",
            "permalink": "https://www.npr.org/2018/01/23/580076612/breaking-down-the-2018-oscar-nominations?utm_medium=RSS&utm_campaign=movies",
            "pubdate": "2018-01-23T21:18:00.000Z",
            "comments": "",
            "feedUrl": "http://www.npr.org/rss/rss.php?id=1045",
            "when": "2018-01-26T20:54:55.979Z",
            "aggregator": "River5 v0.6.2",
            "id": 121
        },
        {
            "title": "Oscars Debut New Rules To Avoid Another Envelope Mix-Up",
            "link": "https://www.npr.org/sections/thetwo-way/2018/01/23/579973772/oscar-awards-debut-new-rules-to-avoid-another-envelope-mix-up?utm_medium=RSS&utm_campaign=movies",
            "description": "Last year's historic Best Picture debacle prompted the accounting firm responsible for the security of envelopes to come up with new fail-safes. Most important: Stop tweeting and put away that phone.(Image credit: Matt Sayles/Invision/AP)",
            "permalink": "https://www.npr.org/sections/thetwo-way/2018/01/23/579973772/oscar-awards-debut-new-rules-to-avoid-another-envelope-mix-up?utm_medium=RSS&utm_campaign=movies",
            "pubdate": "2018-01-23T19:07:00.000Z",
            "comments": "",
            "feedUrl": "http://www.npr.org/rss/rss.php?id=1045",
            "when": "2018-01-26T20:54:55.979Z",
            "aggregator": "River5 v0.6.2",
            "id": 122
        },
        {
            "title": "Oscar-Nominated 'Phantom Thread' Focuses On Fashion's 'Most Obsessive'",
            "link": "https://www.npr.org/2018/01/23/579940053/oscar-nominated-phantom-thread-focuses-on-fashion-s-most-obsessive?utm_medium=RSS&utm_campaign=movies",
            "description": "Paul Thomas Anderson's new film stars Daniel Day-Lewis as a renowned fashion designer. Phantom Thread landed six Oscar nominations, but Anderson says making sewing look dramatic wasn't easy.(Image credit: Laurie Sparham /Focus Features)",
            "permalink": "https://www.npr.org/2018/01/23/579940053/oscar-nominated-phantom-thread-focuses-on-fashion-s-most-obsessive?utm_medium=RSS&utm_campaign=movies",
            "pubdate": "2018-01-23T18:55:00.000Z",
            "comments": "",
            "feedUrl": "http://www.npr.org/rss/rss.php?id=1045",
            "when": "2018-01-26T20:54:55.980Z",
            "aggregator": "River5 v0.6.2",
            "id": 123
        },
        {
            "title": "'Shape Of Water,' 'Dunkirk' And 'Three Billboards' Lead Oscar Nominations",
            "link": "https://www.npr.org/sections/monkeysee/2018/01/23/579102656/oscars-2018-the-complete-list-of-nominees?utm_medium=RSS&utm_campaign=movies",
            "description": "This year's Academy Award nominations include a lot of old favorites, but also some new voices — including the first women ever nominated for cinematography.(Image credit: Christopher Polk/Getty Images)",
            "permalink": "https://www.npr.org/sections/monkeysee/2018/01/23/579102656/oscars-2018-the-complete-list-of-nominees?utm_medium=RSS&utm_campaign=movies",
            "pubdate": "2018-01-23T13:36:00.000Z",
            "comments": "",
            "feedUrl": "http://www.npr.org/rss/rss.php?id=1045",
            "when": "2018-01-26T20:54:55.980Z",
            "aggregator": "River5 v0.6.2",
            "id": 124
        },
        {
            "title": "WATCH: 2018 Oscar Nominations",
            "link": "https://www.npr.org/sections/monkeysee/2018/01/23/578602536/watch-live-2018-oscar-nominations?utm_medium=RSS&utm_campaign=movies",
            "description": "This year's Academy Award nominations were announced Tuesday morning via live stream.(Image credit: Christopher Polk/Getty Images)",
            "permalink": "https://www.npr.org/sections/monkeysee/2018/01/23/578602536/watch-live-2018-oscar-nominations?utm_medium=RSS&utm_campaign=movies",
            "pubdate": "2018-01-23T13:00:45.000Z",
            "comments": "",
            "feedUrl": "http://www.npr.org/rss/rss.php?id=1045",
            "when": "2018-01-26T20:54:55.980Z",
            "aggregator": "River5 v0.6.2",
            "id": 125
        },
        {
            "title": "Is Sexual Harassment a Civil Rights Violation? It Should Be.",
            "link": "https://www.aclu.org/blog/womens-rights/sexual-harassment-civil-rights-violation-it-should-be",
            "description": "Civil rights remedies can be a tool for accountability and redress.\nIf the recent wave of sexual harassment and sexual assault revelations has taught us anything, it’s that we have not done enough to end sexual harassment and gender-based violence.\nIt has been over 30 years ...",
            "permalink": "",
            "pubdate": "2018-01-26T18:15:00.000Z",
            "comments": "",
            "feedUrl": "http://www.aclu.org/blog/feed/",
            "when": "2018-01-26T20:54:57.029Z",
            "aggregator": "River5 v0.6.2",
            "id": 171
        },
        {
            "title": "Pennsylvania Imposes Permanent Solitary on Prisoners Facing Death",
            "link": "https://www.aclu.org/blog/prisoners-rights/solitary-confinement/pennsylvania-imposes-permanent-solitary-prisoners-facing",
            "description": "Prisoners in Pennsylvania can spend decades in solitary confinement, harming their physical and mental health.  \nImagine an ordinary parking space. Now add walls and a ceiling made of thick concrete, closed off by a solid steel door. The lights are always on, so it’s never dark. ...",
            "permalink": "",
            "pubdate": "2018-01-25T22:00:00.000Z",
            "comments": "",
            "feedUrl": "http://www.aclu.org/blog/feed/",
            "when": "2018-01-26T20:54:57.029Z",
            "aggregator": "River5 v0.6.2",
            "id": 172
        },
        {
            "title": "The NYPD’s ‘Cult of Compliance’",
            "link": "https://www.aclu.org/blog/criminal-law-reform/reforming-police-practices/nypds-cult-compliance",
            "description": "The NYPD reveals itself as an unelected branch of New York City government that elected leaders will not defy.\nIn New York City, bills are passed by city council members and signed by the mayor. But when the legislation is about policing, there is another, de-facto branch of ...",
            "permalink": "",
            "pubdate": "2018-01-25T15:00:00.000Z",
            "comments": "",
            "feedUrl": "http://www.aclu.org/blog/feed/",
            "when": "2018-01-26T20:54:57.029Z",
            "aggregator": "River5 v0.6.2",
            "id": 173
        },
        {
            "title": "Wyomingites Say No to For-Profit Prison Looking to Settle in the State.",
            "link": "https://www.aclu.org/blog/mass-incarceration/privatization-criminal-justice/wyomingites-say-no-profit-prison-looking",
            "description": "Seeing a track record of neglect and abuse, Wyoming is mobilizing against private prisons coming to the state. \nIt should have been an ordinary December day for Juan Moreno*. He kissed his wife and kids goodbye in Casper, Wyoming, and left for work. But as Moreno turned the ...",
            "permalink": "",
            "pubdate": "2018-01-24T21:15:00.000Z",
            "comments": "",
            "feedUrl": "http://www.aclu.org/blog/feed/",
            "when": "2018-01-26T20:54:57.029Z",
            "aggregator": "River5 v0.6.2",
            "id": 174
        },
        {
            "title": "Customs and Border Protection Violated Court Orders During the First Muslim Ban Implementation",
            "link": "https://www.aclu.org/blog/immigrants-rights/ice-and-border-patrol-abuses/customs-and-border-protection-violated-court",
            "description": "Even as court orders rolled in, Customs and Border Protection continued to uphold Trump&#039;s Muslim ban.\nIt’s been nearly a year since the Trump Administration issued its first Muslim ban, unleashing chaos at airports across the country. A new report provides some details ...",
            "permalink": "",
            "pubdate": "2018-01-24T20:45:00.000Z",
            "comments": "",
            "feedUrl": "http://www.aclu.org/blog/feed/",
            "when": "2018-01-26T20:54:57.030Z",
            "aggregator": "River5 v0.6.2",
            "id": 175
        },
        {
            "title": "Is a Nondisclosure Agreement Silencing You From Sharing Your ‘Me Too’ Story? 4 Reasons It Might Be Illegal",
            "link": "https://www.aclu.org/blog/womens-rights/womens-rights-workplace/nondisclosure-agreement-silencing-you-sharing-your-me-too",
            "description": "If you have been sexually harassed, you shouldn’t be silenced by a coercive nondisclosure agreement. \nThe #MeToo movement has freed women, many of whom have kept silent about sexual harassment or assault, to tell their stories. Finally, survivors’ voices are being heard. But ...",
            "permalink": "",
            "pubdate": "2018-01-24T14:45:00.000Z",
            "comments": "",
            "feedUrl": "http://www.aclu.org/blog/feed/",
            "when": "2018-01-26T20:54:57.030Z",
            "aggregator": "River5 v0.6.2",
            "id": 176
        },
        {
            "title": "Dallas County Violates People’s Rights by Keeping Them in Jail for Being Poor",
            "link": "https://www.aclu.org/blog/mass-incarceration/smart-justice/dallas-county-violates-peoples-rights-keeping-them-jail-being",
            "description": "Dallas County’s use of money bail is perpetuating illegal wealth-based incarceration. \nShannon Daves is a 47-year-old transgender woman who has been homeless in Dallas County, Texas, since last August. On January 17, she was arrested for an alleged misdemeanor and taken to the ...",
            "permalink": "",
            "pubdate": "2018-01-23T22:15:00.000Z",
            "comments": "",
            "feedUrl": "http://www.aclu.org/blog/feed/",
            "when": "2018-01-26T20:54:57.030Z",
            "aggregator": "River5 v0.6.2",
            "id": 177
        },
        {
            "title": "Tenants Can Get Evicted for Calling the Police Across New York and Much of the Country",
            "link": "https://www.aclu.org/blog/womens-rights/violence-against-women/tenants-can-get-evicted-calling-police-across-new-york-and",
            "description": "So-called “nuisance ordinances” create a perverse incentive not to report crime and endanger domestic violence victims. \nThe second time that Laurie Grape called the police during an attack by her then-boyfriend, they told her that a third call would get her evicted. Under a ...",
            "permalink": "",
            "pubdate": "2018-01-23T16:00:00.000Z",
            "comments": "",
            "feedUrl": "http://www.aclu.org/blog/feed/",
            "when": "2018-01-26T20:54:57.030Z",
            "aggregator": "River5 v0.6.2",
            "id": 178
        },
        {
            "title": "Worried About Getting Sued for Reporting Sexual Abuse? Here Are Some Tips.",
            "link": "https://www.aclu.org/blog/womens-rights/worried-about-getting-sued-reporting-sexual-abuse-here-are-some-tips",
            "description": "#MeToo has spawned a surge in defamation claims designed to silence victims. But there are ways to minimize legal risks. \nThe #MeToo movement has drawn an outpouring of testimony by the victims of sexual harassment and sexual abuse. In response, there has been a surge in ...",
            "permalink": "",
            "pubdate": "2018-01-22T21:00:00.000Z",
            "comments": "",
            "feedUrl": "http://www.aclu.org/blog/feed/",
            "when": "2018-01-26T20:54:57.030Z",
            "aggregator": "River5 v0.6.2",
            "id": 179
        },
        {
            "title": "On the 45th Anniversary of Roe v. Wade, Court Battles for Abortion Access Persist",
            "link": "https://www.aclu.org/blog/reproductive-freedom/abortion/45th-anniversary-roe-v-wade-court-battles-abortion-access-persist",
            "description": "You’d be forgiven for forgetting Roe is the law of the land. In 2017 alone, 19 states adopted 63 new abortion restrictions.\nOn January 22, 1973, the U.S. Supreme Court issued its landmark decision Roe v. Wade, recognizing that the Constitution protects a woman’s right to an ...",
            "permalink": "",
            "pubdate": "2018-01-22T15:45:00.000Z",
            "comments": "",
            "feedUrl": "http://www.aclu.org/blog/feed/",
            "when": "2018-01-26T20:54:57.030Z",
            "aggregator": "River5 v0.6.2",
            "id": 180
        }
    ]
}